2 4 1
2 4 1
2 4 1
2 4 1
2 4 1
2 4 1
2 4 1
2 4 1
1.98422 3.94771 0.979911
1.98272 3.92296 0.972504
1.95041 3.806 0.90364
1.95041 3.806 0.90364
1.88353 3.53497 0.796831
1.85309 3.44895 0.750327
1.70412 2.86387 0.656934
1.67367 2.77786 0.508203
1.67367 2.77786 0.508203
1.67367 2.77786 0.508203
1.57934 2.47032 0.393289
1.57934 2.47032 0.393289
1.54696 2.40449 0.312169
1.54696 2.40449 0.312169
1.32592 1.72358 0.225186
1.32592 1.72358 0.225186
1.46486 2.14593 0.216099
1.30696 1.70192 0.0980938
1.30696 1.70192 0.0980938
1.30696 1.70192 0.0980938
1.30696 1.70192 0.0980938
1.19573 1.40597 0.0949299
1.15787 1.32771 0.0416822
1.15787 1.32771 0.0416822
1.15787 1.32771 0.0416822
1.05907 1.10698 0.0249392
1.15624 1.33673 0.024414
1.00723 1.01015 0.0019597
1.00723 1.01015 0.0019597
1.00723 1.01015 0.0019597
1.00723 1.01015 0.0019597
0.972305 0.945658 0.000774971
0.972305 0.945658 0.000774971
1.00394 1.0063 0.000267477
1.00855 1.01761 9.26488e-05
1.00855 1.01761 9.26488e-05
1.00142 1.00225 3.72922e-05
0.997128 0.994368 9.30823e-06
0.997128 0.994368 9.30823e-06
