<?xml version="1.0" encoding="utf-8"  standalone="no"?>
<svg 
 width="600" height="480"
 viewBox="0 0 600 480"
 xmlns="http://www.w3.org/2000/svg"
 xmlns:xlink="http://www.w3.org/1999/xlink"
>

<title>Gnuplot</title>
<desc>Produced by GNUPLOT 5.2 patchlevel 2 </desc>

<g id="gnuplot_canvas">

<rect x="0" y="0" width="600" height="480" fill="#ffffff"/>
<defs>

	<circle id='gpDot' r='0.5' stroke-width='0.5'/>
	<path id='gpPt0' stroke-width='0.222' stroke='currentColor' d='M-1,0 h2 M0,-1 v2'/>
	<path id='gpPt1' stroke-width='0.222' stroke='currentColor' d='M-1,-1 L1,1 M1,-1 L-1,1'/>
	<path id='gpPt2' stroke-width='0.222' stroke='currentColor' d='M-1,0 L1,0 M0,-1 L0,1 M-1,-1 L1,1 M-1,1 L1,-1'/>
	<rect id='gpPt3' stroke-width='0.222' stroke='currentColor' x='-1' y='-1' width='2' height='2'/>
	<rect id='gpPt4' stroke-width='0.222' stroke='currentColor' fill='currentColor' x='-1' y='-1' width='2' height='2'/>
	<circle id='gpPt5' stroke-width='0.222' stroke='currentColor' cx='0' cy='0' r='1'/>
	<use xlink:href='#gpPt5' id='gpPt6' fill='currentColor' stroke='none'/>
	<path id='gpPt7' stroke-width='0.222' stroke='currentColor' d='M0,-1.33 L-1.33,0.67 L1.33,0.67 z'/>
	<use xlink:href='#gpPt7' id='gpPt8' fill='currentColor' stroke='none'/>
	<use xlink:href='#gpPt7' id='gpPt9' stroke='currentColor' transform='rotate(180)'/>
	<use xlink:href='#gpPt9' id='gpPt10' fill='currentColor' stroke='none'/>
	<use xlink:href='#gpPt3' id='gpPt11' stroke='currentColor' transform='rotate(45)'/>
	<use xlink:href='#gpPt11' id='gpPt12' fill='currentColor' stroke='none'/>
	<path id='gpPt13' stroke-width='0.222' stroke='currentColor' d='M0,1.330 L1.265,0.411 L0.782,-1.067 L-0.782,-1.076 L-1.265,0.411 z'/>
	<use xlink:href='#gpPt13' id='gpPt14' fill='currentColor' stroke='none'/>
	<filter id='textbox' filterUnits='objectBoundingBox' x='0' y='0' height='1' width='1'>
	  <feFlood flood-color='#FFFFFF' flood-opacity='1' result='bgnd'/>
	  <feComposite in='SourceGraphic' in2='bgnd' operator='atop'/>
	</filter>
	<filter id='greybox' filterUnits='objectBoundingBox' x='0' y='0' height='1' width='1'>
	  <feFlood flood-color='lightgrey' flood-opacity='1' result='grey'/>
	  <feComposite in='SourceGraphic' in2='grey' operator='atop'/>
	</filter>
</defs>
<g fill="none" color="#FFFFFF" stroke="currentColor" stroke-width="1.00" stroke-linecap="butt" stroke-linejoin="miter">
</g>
<g fill="none" color="black" stroke="currentColor" stroke-width="1.00" stroke-linecap="butt" stroke-linejoin="miter">
	<path stroke='black'  d='M53.9,444.0 L62.9,444.0 M575.0,444.0 L566.0,444.0  '/>	<g transform="translate(45.6,447.9)" stroke="none" fill="black" font-family="Arial" font-size="12.00"  text-anchor="end">
		<text><tspan font-family="Arial" >-1.5</tspan></text>
	</g>
</g>
<g fill="none" color="black" stroke="currentColor" stroke-width="1.00" stroke-linecap="butt" stroke-linejoin="miter">
	<path stroke='black'  d='M53.9,373.0 L62.9,373.0 M575.0,373.0 L566.0,373.0  '/>	<g transform="translate(45.6,376.9)" stroke="none" fill="black" font-family="Arial" font-size="12.00"  text-anchor="end">
		<text><tspan font-family="Arial" >-1</tspan></text>
	</g>
</g>
<g fill="none" color="black" stroke="currentColor" stroke-width="1.00" stroke-linecap="butt" stroke-linejoin="miter">
	<path stroke='black'  d='M53.9,302.0 L62.9,302.0 M575.0,302.0 L566.0,302.0  '/>	<g transform="translate(45.6,305.9)" stroke="none" fill="black" font-family="Arial" font-size="12.00"  text-anchor="end">
		<text><tspan font-family="Arial" >-0.5</tspan></text>
	</g>
</g>
<g fill="none" color="black" stroke="currentColor" stroke-width="1.00" stroke-linecap="butt" stroke-linejoin="miter">
	<path stroke='black'  d='M53.9,231.0 L62.9,231.0 M575.0,231.0 L566.0,231.0  '/>	<g transform="translate(45.6,234.9)" stroke="none" fill="black" font-family="Arial" font-size="12.00"  text-anchor="end">
		<text><tspan font-family="Arial" > 0</tspan></text>
	</g>
</g>
<g fill="none" color="black" stroke="currentColor" stroke-width="1.00" stroke-linecap="butt" stroke-linejoin="miter">
	<path stroke='black'  d='M53.9,160.1 L62.9,160.1 M575.0,160.1 L566.0,160.1  '/>	<g transform="translate(45.6,164.0)" stroke="none" fill="black" font-family="Arial" font-size="12.00"  text-anchor="end">
		<text><tspan font-family="Arial" > 0.5</tspan></text>
	</g>
</g>
<g fill="none" color="black" stroke="currentColor" stroke-width="1.00" stroke-linecap="butt" stroke-linejoin="miter">
	<path stroke='black'  d='M53.9,89.1 L62.9,89.1 M575.0,89.1 L566.0,89.1  '/>	<g transform="translate(45.6,93.0)" stroke="none" fill="black" font-family="Arial" font-size="12.00"  text-anchor="end">
		<text><tspan font-family="Arial" > 1</tspan></text>
	</g>
</g>
<g fill="none" color="black" stroke="currentColor" stroke-width="1.00" stroke-linecap="butt" stroke-linejoin="miter">
	<path stroke='black'  d='M53.9,18.1 L62.9,18.1 M575.0,18.1 L566.0,18.1  '/>	<g transform="translate(45.6,22.0)" stroke="none" fill="black" font-family="Arial" font-size="12.00"  text-anchor="end">
		<text><tspan font-family="Arial" > 1.5</tspan></text>
	</g>
</g>
<g fill="none" color="black" stroke="currentColor" stroke-width="1.00" stroke-linecap="butt" stroke-linejoin="miter">
	<path stroke='black'  d='M53.9,444.0 L53.9,435.0 M53.9,18.1 L53.9,27.1  '/>	<g transform="translate(53.9,465.9)" stroke="none" fill="black" font-family="Arial" font-size="12.00"  text-anchor="middle">
		<text><tspan font-family="Arial" > 0</tspan></text>
	</g>
</g>
<g fill="none" color="black" stroke="currentColor" stroke-width="1.00" stroke-linecap="butt" stroke-linejoin="miter">
	<path stroke='black'  d='M106.0,444.0 L106.0,435.0 M106.0,18.1 L106.0,27.1  '/>	<g transform="translate(106.0,465.9)" stroke="none" fill="black" font-family="Arial" font-size="12.00"  text-anchor="middle">
		<text><tspan font-family="Arial" > 0.1</tspan></text>
	</g>
</g>
<g fill="none" color="black" stroke="currentColor" stroke-width="1.00" stroke-linecap="butt" stroke-linejoin="miter">
	<path stroke='black'  d='M158.1,444.0 L158.1,435.0 M158.1,18.1 L158.1,27.1  '/>	<g transform="translate(158.1,465.9)" stroke="none" fill="black" font-family="Arial" font-size="12.00"  text-anchor="middle">
		<text><tspan font-family="Arial" > 0.2</tspan></text>
	</g>
</g>
<g fill="none" color="black" stroke="currentColor" stroke-width="1.00" stroke-linecap="butt" stroke-linejoin="miter">
	<path stroke='black'  d='M210.2,444.0 L210.2,435.0 M210.2,18.1 L210.2,27.1  '/>	<g transform="translate(210.2,465.9)" stroke="none" fill="black" font-family="Arial" font-size="12.00"  text-anchor="middle">
		<text><tspan font-family="Arial" > 0.3</tspan></text>
	</g>
</g>
<g fill="none" color="black" stroke="currentColor" stroke-width="1.00" stroke-linecap="butt" stroke-linejoin="miter">
	<path stroke='black'  d='M262.3,444.0 L262.3,435.0 M262.3,18.1 L262.3,27.1  '/>	<g transform="translate(262.3,465.9)" stroke="none" fill="black" font-family="Arial" font-size="12.00"  text-anchor="middle">
		<text><tspan font-family="Arial" > 0.4</tspan></text>
	</g>
</g>
<g fill="none" color="black" stroke="currentColor" stroke-width="1.00" stroke-linecap="butt" stroke-linejoin="miter">
	<path stroke='black'  d='M314.5,444.0 L314.5,435.0 M314.5,18.1 L314.5,27.1  '/>	<g transform="translate(314.5,465.9)" stroke="none" fill="black" font-family="Arial" font-size="12.00"  text-anchor="middle">
		<text><tspan font-family="Arial" > 0.5</tspan></text>
	</g>
</g>
<g fill="none" color="black" stroke="currentColor" stroke-width="1.00" stroke-linecap="butt" stroke-linejoin="miter">
	<path stroke='black'  d='M366.6,444.0 L366.6,435.0 M366.6,18.1 L366.6,27.1  '/>	<g transform="translate(366.6,465.9)" stroke="none" fill="black" font-family="Arial" font-size="12.00"  text-anchor="middle">
		<text><tspan font-family="Arial" > 0.6</tspan></text>
	</g>
</g>
<g fill="none" color="black" stroke="currentColor" stroke-width="1.00" stroke-linecap="butt" stroke-linejoin="miter">
	<path stroke='black'  d='M418.7,444.0 L418.7,435.0 M418.7,18.1 L418.7,27.1  '/>	<g transform="translate(418.7,465.9)" stroke="none" fill="black" font-family="Arial" font-size="12.00"  text-anchor="middle">
		<text><tspan font-family="Arial" > 0.7</tspan></text>
	</g>
</g>
<g fill="none" color="black" stroke="currentColor" stroke-width="1.00" stroke-linecap="butt" stroke-linejoin="miter">
	<path stroke='black'  d='M470.8,444.0 L470.8,435.0 M470.8,18.1 L470.8,27.1  '/>	<g transform="translate(470.8,465.9)" stroke="none" fill="black" font-family="Arial" font-size="12.00"  text-anchor="middle">
		<text><tspan font-family="Arial" > 0.8</tspan></text>
	</g>
</g>
<g fill="none" color="black" stroke="currentColor" stroke-width="1.00" stroke-linecap="butt" stroke-linejoin="miter">
	<path stroke='black'  d='M522.9,444.0 L522.9,435.0 M522.9,18.1 L522.9,27.1  '/>	<g transform="translate(522.9,465.9)" stroke="none" fill="black" font-family="Arial" font-size="12.00"  text-anchor="middle">
		<text><tspan font-family="Arial" > 0.9</tspan></text>
	</g>
</g>
<g fill="none" color="black" stroke="currentColor" stroke-width="1.00" stroke-linecap="butt" stroke-linejoin="miter">
	<path stroke='black'  d='M575.0,444.0 L575.0,435.0 M575.0,18.1 L575.0,27.1  '/>	<g transform="translate(575.0,465.9)" stroke="none" fill="black" font-family="Arial" font-size="12.00"  text-anchor="middle">
		<text><tspan font-family="Arial" > 1</tspan></text>
	</g>
</g>
<g fill="none" color="black" stroke="currentColor" stroke-width="1.00" stroke-linecap="butt" stroke-linejoin="miter">
</g>
<g fill="none" color="black" stroke="currentColor" stroke-width="1.00" stroke-linecap="butt" stroke-linejoin="miter">
	<path stroke='black'  d='M53.9,18.1 L53.9,444.0 L575.0,444.0 L575.0,18.1 L53.9,18.1 Z  '/></g>
<g fill="none" color="black" stroke="currentColor" stroke-width="1.00" stroke-linecap="butt" stroke-linejoin="miter">
</g>
	<g id="gnuplot_plot_1" ><title>f(x)</title>
<g fill="none" color="black" stroke="currentColor" stroke-width="1.00" stroke-linecap="butt" stroke-linejoin="miter">
	<g transform="translate(507.9,40.0)" stroke="none" fill="black" font-family="Arial" font-size="12.00"  text-anchor="end">
		<text><tspan font-family="Arial" >f(x)</tspan></text>
	</g>
</g>
<g fill="none" color="black" stroke="currentColor" stroke-width="1.00" stroke-linecap="butt" stroke-linejoin="miter">
	<path stroke='rgb(148,   0, 211)'  d='M516.2,36.1 L558.4,36.1 M59.1,89.1 L64.3,89.1 L69.5,89.1 L74.7,89.1 L80.0,89.1 L85.2,89.1
		L90.4,89.1 L95.6,89.1 L100.8,89.1 L106.0,89.1 L111.2,89.1 L116.4,89.1 L121.6,89.1 L126.9,89.1
		L132.1,89.1 L137.3,89.1 L142.5,89.1 L147.7,89.1 L152.9,89.1 L158.1,89.1 L163.3,89.1 L168.5,89.1
		L173.8,89.1 L179.0,89.1 L184.2,89.1 L189.4,89.1 L194.6,89.1 L199.8,89.1 L205.0,89.1 L210.2,89.1
		L215.4,89.1 L220.7,89.1 L225.9,89.1 L231.1,89.1 L236.3,89.1 L241.5,89.1 L246.7,89.1 L251.9,89.1
		L257.1,89.1 L262.3,89.1 L267.6,89.1 L272.8,89.1 L278.0,89.1 L283.2,89.1 L288.4,89.1 L293.6,89.1
		L298.8,89.1 L304.0,89.1 L309.2,89.1 L314.5,89.1 L319.7,89.1 L324.9,89.1 L330.1,89.1 L335.3,89.1
		L340.5,89.1 L345.7,89.1 L350.9,89.1 L356.1,89.1 L361.3,89.1 L366.6,89.1 L371.8,89.1 L377.0,89.1
		L382.2,89.1 L387.4,89.1 L392.6,89.1 L397.8,89.1 L403.0,89.1 L408.2,89.1 L413.5,89.1 L418.7,89.1
		L423.9,89.1 L429.1,89.1 L434.3,89.1 L439.5,89.1 L444.7,89.1 L449.9,89.1 L455.1,89.1 L460.4,89.1
		L465.6,89.1 L470.8,89.1 L476.0,89.1 L481.2,89.1 L486.4,89.1 L491.6,89.1 L496.8,89.1 L502.0,89.1
		L507.3,89.1 L512.5,89.1 L517.7,89.1 L522.9,89.1 L528.1,89.1 L533.3,89.1 L538.5,89.1 L543.7,89.1
		L548.9,89.1 L554.2,89.1 L559.4,89.1 L564.6,89.1 L569.8,89.1 M54.4,231.0 L54.9,231.0 L55.5,231.0
		L56.0,231.0 L56.5,231.0 L57.0,231.0 L57.5,231.0 L58.1,231.0 L58.6,231.0 L59.1,231.0 L59.6,231.0
		L60.2,231.0 L60.7,231.0 L61.2,231.0 L61.7,231.0 L62.2,231.0 L62.8,231.0 L63.3,231.0 L63.8,231.0
		L64.3,231.0 L64.8,231.0 L65.4,231.0 L65.9,231.0 L66.4,231.0 L66.9,231.0 L67.4,231.0 L68.0,231.0
		L68.5,231.0 L69.0,231.0 L69.5,231.0 L70.1,231.0 L70.6,231.0 L71.1,231.0 L71.6,231.0 L72.1,231.0
		L72.7,231.0 L73.2,231.0 L73.7,231.0 L74.2,231.0 L74.7,231.0 L75.3,231.0 L75.8,231.0 L76.3,231.0
		L76.8,231.0 L77.3,231.0 L77.9,231.0 L78.4,231.0 L78.9,231.0 L79.4,231.0 L80.0,231.0 L80.5,231.0
		L81.0,231.0 L81.5,231.0 L82.0,231.0 L82.6,231.0 L83.1,231.0 L83.6,231.0 L84.1,231.0 L84.6,231.0
		L85.2,231.0 L85.7,231.0 L86.2,231.0 L86.7,231.0 L87.3,231.0 L87.8,231.0 L88.3,231.0 L88.8,231.0
		L89.3,231.0 L89.9,231.0 L90.4,231.0 L90.9,231.0 L91.4,231.0 L91.9,231.0 L92.5,231.0 L93.0,231.0
		L93.5,231.0 L94.0,231.0 L94.5,231.0 L95.1,231.0 L95.6,231.0 L96.1,231.0 L96.6,231.0 L97.2,231.0
		L97.7,231.0 L98.2,231.0 L98.7,231.0 L99.2,231.0 L99.8,231.0 L100.3,231.0 L100.8,231.0 L101.3,231.0
		L101.8,231.0 L102.4,231.0 L102.9,231.0 L103.4,231.0 L103.9,231.0 L104.4,231.0 L105.0,231.0 L105.5,231.0
		L106.0,231.0 L106.5,231.0 L107.1,231.0 L107.6,231.0 L108.1,231.0 L108.6,231.0 L109.1,231.0 L109.7,231.0
		L110.2,231.0 L110.7,231.0 L111.2,231.0 L111.7,231.0 L112.3,231.0 L112.8,231.0 L113.3,231.0 L113.8,231.0
		L114.3,231.0 L114.9,231.0 L115.4,231.0 L115.9,231.0 L116.4,231.0 L117.0,231.0 L117.5,231.0 L118.0,231.0
		L118.5,231.0 L119.0,231.0 L119.6,231.0 L120.1,231.0 L120.6,231.0 L121.1,231.0 L121.6,231.0 L122.2,231.0
		L122.7,231.0 L123.2,231.0 L123.7,231.0 L124.2,231.1 L124.8,231.1 L125.3,231.1 L125.8,231.1 L126.3,231.1
		L126.9,231.1 L127.4,231.1 L127.9,231.1 L128.4,231.1 L128.9,231.1 L129.5,231.1 L130.0,231.1 L130.5,231.1
		L131.0,231.1 L131.5,231.1 L132.1,231.1 L132.6,231.1 L133.1,231.1 L133.6,231.1 L134.1,231.1 L134.7,231.1
		L135.2,231.1 L135.7,231.1 L136.2,231.1 L136.8,231.1 L137.3,231.1 L137.8,231.1 L138.3,231.1 L138.8,231.1
		L139.4,231.1 L139.9,231.1 L140.4,231.1 L140.9,231.1 L141.4,231.1 L142.0,231.1 L142.5,231.1 L143.0,231.1
		L143.5,231.1 L144.1,231.1 L144.6,231.1 L145.1,231.1 L145.6,231.1 L146.1,231.1 L146.7,231.1 L147.2,231.1
		L147.7,231.1 L148.2,231.1 L148.7,231.1 L149.3,231.1 L149.8,231.1 L150.3,231.1 L150.8,231.1 L151.3,231.1
		L151.9,231.1 L152.4,231.1 L152.9,231.1 L153.4,231.1 L154.0,231.1 L154.5,231.1 L155.0,231.1 L155.5,231.1
		L156.0,231.1 L156.6,231.1 L157.1,231.1 L157.6,231.1 L158.1,231.1 L158.6,231.1 L159.2,231.1 L159.7,231.1
		L160.2,231.1 L160.7,231.1 L161.2,231.1 L161.8,231.1 L162.3,231.1 L162.8,231.1 L163.3,231.1 L163.9,231.1
		L164.4,231.1 L164.9,231.1 L165.4,231.1 L165.9,231.1 L166.5,231.1 L167.0,231.1 L167.5,231.1 L168.0,231.1
		L168.5,231.1 L169.1,231.1 L169.6,231.1 L170.1,231.1 L170.6,231.1 L171.1,231.1 L171.7,231.1 L172.2,231.1
		L172.7,231.1 L173.2,231.2 L173.8,231.2 L174.3,231.2 L174.8,231.2 L175.3,231.2 L175.8,231.2 L176.4,231.3
		L176.9,231.3 L177.4,231.3 L177.9,231.3 L178.4,231.4 L179.0,231.4 L179.5,231.4 L180.0,231.5 L180.5,231.5
		L181.0,231.6 L181.6,231.6 L182.1,231.6 L182.6,231.7 L183.1,231.8 L183.7,231.8 L184.2,231.9 L184.7,232.0
		L185.2,232.0 L185.7,232.1 L186.3,232.2 L186.8,232.3 L187.3,232.4 L187.8,232.5 L188.3,232.6 L188.9,232.7
		L189.4,232.9 L189.9,233.0 L190.4,233.1 L190.9,233.3 L191.5,233.4 L192.0,233.6 L192.5,233.8 L193.0,234.0
		L193.6,234.2 L194.1,234.4 L194.6,234.6 L195.1,234.8 L195.6,235.0 L196.2,235.3 L196.7,235.5 L197.2,235.8
		L197.7,236.1 L198.2,236.4 L198.8,236.7 L199.3,237.0 L199.8,237.3 L200.3,237.6 L200.9,238.0 L201.4,238.4
		L201.9,238.8 L202.4,239.2 L202.9,239.6 L203.5,240.0 L204.0,240.4 L204.5,240.9 L205.0,241.4 L205.5,241.8
		L206.1,242.3 L206.6,242.9 L207.1,243.4 L207.6,243.9 L208.1,244.5 L208.7,245.1 L209.2,245.7 L209.7,246.3
		L210.2,247.0 L210.8,247.6 L211.3,248.3 L211.8,249.0 L212.3,249.7 L212.8,250.4 L213.4,251.1 L213.9,251.9
		L214.4,252.6 L214.9,253.4 L215.4,254.2 L216.0,255.1 L216.5,255.9 L217.0,256.8 L217.5,257.6 L218.0,258.5
		L218.6,259.5 L219.1,260.4 L219.6,261.3 L220.1,262.3 L220.7,263.3 L221.2,264.3 L221.7,265.3 L222.2,266.3
		L222.7,267.4 L223.3,268.4 L223.8,269.5 L224.3,270.6 L224.8,271.7 L225.3,272.8 L225.9,274.0 L226.4,275.1
		L226.9,276.3 L227.4,277.5 L227.9,278.7 L228.5,279.9 L229.0,281.1 L229.5,282.3 L230.0,283.6 L230.6,284.8
		L231.1,286.1 L231.6,287.4 L232.1,288.7 L232.6,290.0 L233.2,291.3 L233.7,292.6 L234.2,294.0 L234.7,295.3
		L235.2,296.7 L235.8,298.1 L236.3,299.4 L236.8,300.8 L237.3,302.2 L237.8,303.6 L238.4,305.0 L238.9,306.5
		L239.4,307.9 L239.9,309.3 L240.5,310.7 L241.0,312.2 L241.5,313.6 L242.0,315.1 L242.5,316.5 L243.1,318.0
		L243.6,319.5 L244.1,320.9 L244.6,322.4 L245.1,323.9 L245.7,325.3 L246.2,326.8 L246.7,328.3 L247.2,329.8
		L247.7,331.2 L248.3,332.7 L248.8,334.2 L249.3,335.7 L249.8,337.1 L250.4,338.6 L250.9,340.1 L251.4,341.6
		L251.9,343.0 L252.4,344.5 L253.0,345.9 L253.5,347.4 L254.0,348.9 L254.5,350.3 L255.0,351.8 L255.6,353.2
		L256.1,354.6 L256.6,356.1 L257.1,357.5 L257.7,358.9 L258.2,360.3 L258.7,361.7 L259.2,363.1 L259.7,364.5
		L260.3,365.9 L260.8,367.3 L261.3,368.6 L261.8,370.0 L262.3,371.3 L262.9,372.7 L263.4,374.0 L263.9,375.3
		L264.4,376.6 L264.9,377.9 L265.5,379.2 L266.0,380.5 L266.5,381.8 L267.0,383.0 L267.6,384.3 L268.1,385.5
		L268.6,386.7 L269.1,388.0 L269.6,389.2 L270.2,390.4 L270.7,391.5 L271.2,392.7 L271.7,393.8 L272.2,395.0
		L272.8,396.1 L273.3,397.2 L273.8,398.3 L274.3,399.4 L274.8,400.5 L275.4,401.6 L275.9,402.6 L276.4,403.6
		L276.9,404.7 L277.5,405.7 L278.0,406.7 L278.5,407.6 L279.0,408.6 L279.5,409.5 L280.1,410.5 L280.6,411.4
		L281.1,412.3 L281.6,413.2 L282.1,414.1 L282.7,414.9 L283.2,415.8 L283.7,416.6 L284.2,417.4 L284.7,418.2
		L285.3,419.0 L285.8,419.8 L286.3,420.5 L286.8,421.3 L287.4,422.0 L287.9,422.7 L288.4,423.4 L288.9,424.1
		L289.4,424.8 L290.0,425.4 L290.5,426.1 L291.0,426.7 L291.5,427.3 L292.0,427.9 L292.6,428.5 L293.1,429.0
		L293.6,429.6 L294.1,430.1 L294.6,430.6 L295.2,431.1 L295.7,431.6 L296.2,432.1 L296.7,432.6 L297.3,433.0
		L297.8,433.4 L298.3,433.8 L298.8,434.2 L299.3,434.6 L299.9,435.0 L300.4,435.4 L300.9,435.7 L301.4,436.0
		L301.9,436.4 L302.5,436.7 L303.0,436.9 L303.5,437.2 L304.0,437.5 L304.5,437.7 L305.1,438.0 L305.6,438.2
		L306.1,438.4 L306.6,438.6 L307.2,438.8 L307.7,438.9 L308.2,439.1 L308.7,439.2 L309.2,439.4 L309.8,439.5
		L310.3,439.6 L310.8,439.7 L311.3,439.7 L311.8,439.8 L312.4,439.9 L312.9,439.9 L313.4,439.9 L313.9,440.0
		L314.5,440.0 L315.0,440.0 L315.5,439.9 L316.0,439.9 L316.5,439.9 L317.1,439.8 L317.6,439.7 L318.1,439.7
		L318.6,439.6 L319.1,439.5 L319.7,439.4 L320.2,439.3 L320.7,439.1 L321.2,439.0 L321.7,438.9 L322.3,438.7
		L322.8,438.5 L323.3,438.4 L323.8,438.2 L324.4,438.0 L324.9,437.8 L325.4,437.5 L325.9,437.3 L326.4,437.1
		L327.0,436.8 L327.5,436.6 L328.0,436.3 L328.5,436.1 L329.0,435.8 L329.6,435.5 L330.1,435.2 L330.6,434.9
		L331.1,434.6 L331.6,434.2 L332.2,433.9 L332.7,433.6 L333.2,433.2 L333.7,432.9 L334.3,432.5 L334.8,432.2
		L335.3,431.8 L335.8,431.4 L336.3,431.0 L336.9,430.6 L337.4,430.2 L337.9,429.8 L338.4,429.4 L338.9,429.0
		L339.5,428.5 L340.0,428.1 L340.5,427.7 L341.0,427.2 L341.5,426.7 L342.1,426.3 L342.6,425.8 L343.1,425.3
		L343.6,424.9 L344.2,424.4 L344.7,423.9 L345.2,423.4 L345.7,422.9 L346.2,422.4 L346.8,421.9 L347.3,421.4
		L347.8,420.9 L348.3,420.3 L348.8,419.8 L349.4,419.3 L349.9,418.7 L350.4,418.2 L350.9,417.6 L351.4,417.1
		L352.0,416.5 L352.5,416.0 L353.0,415.4 L353.5,414.8 L354.1,414.3 L354.6,413.7 L355.1,413.1 L355.6,412.5
		L356.1,411.9 L356.7,411.4 L357.2,410.8 L357.7,410.2 L358.2,409.6 L358.7,409.0 L359.3,408.4 L359.8,407.8
		L360.3,407.1 L360.8,406.5 L361.3,405.9 L361.9,405.3 L362.4,404.7 L362.9,404.0 L363.4,403.4 L364.0,402.8
		L364.5,402.2 L365.0,401.5 L365.5,400.9 L366.0,400.3 L366.6,399.6 L367.1,399.0 L367.6,398.3 L368.1,397.7
		L368.6,397.0 L369.2,396.4 L369.7,395.7 L370.2,395.1 L370.7,394.4 L371.2,393.8 L371.8,393.1 L372.3,392.5
		L372.8,391.8 L373.3,391.2 L373.9,390.5 L374.4,389.8 L374.9,389.2 L375.4,388.5 L375.9,387.9 L376.5,387.2
		L377.0,386.5 L377.5,385.9 L378.0,385.2 L378.5,384.5 L379.1,383.9 L379.6,383.2 L380.1,382.5 L380.6,381.8
		L381.2,381.2 L381.7,380.5 L382.2,379.8 L382.7,379.2 L383.2,378.5 L383.8,377.8 L384.3,377.2 L384.8,376.5
		L385.3,375.8 L385.8,375.1 L386.4,374.5 L386.9,373.8 L387.4,373.1 L387.9,372.5 L388.4,371.8 L389.0,371.1
		L389.5,370.5 L390.0,369.8 L390.5,369.1 L391.1,368.4 L391.6,367.8 L392.1,367.1 L392.6,366.4 L393.1,365.8
		L393.7,365.1 L394.2,364.4 L394.7,363.8 L395.2,363.1 L395.7,362.5 L396.3,361.8 L396.8,361.1 L397.3,360.5
		L397.8,359.8 L398.3,359.2 L398.9,358.5 L399.4,357.8 L399.9,357.2 L400.4,356.5 L401.0,355.9 L401.5,355.2
		L402.0,354.6 L402.5,353.9 L403.0,353.3 L403.6,352.6 L404.1,352.0 L404.6,351.3 L405.1,350.7 L405.6,350.0
		L406.2,349.4 L406.7,348.7 L407.2,348.1 L407.7,347.5 L408.2,346.8 L408.8,346.2 L409.3,345.6 L409.8,344.9
		L410.3,344.3 L410.9,343.7 L411.4,343.0 L411.9,342.4 L412.4,341.8 L412.9,341.2 L413.5,340.5 L414.0,339.9
		L414.5,339.3 L415.0,338.7 L415.5,338.1 L416.1,337.4 L416.6,336.8 L417.1,336.2 L417.6,335.6 L418.1,335.0
		L418.7,334.4 L419.2,333.8 L419.7,333.2 L420.2,332.6 L420.8,332.0 L421.3,331.4 L421.8,330.8 L422.3,330.2
		L422.8,329.6 L423.4,329.0 L423.9,328.4 L424.4,327.8 L424.9,327.2 L425.4,326.6 L426.0,326.1 L426.5,325.5
		L427.0,324.9 L427.5,324.3 L428.0,323.7 L428.6,323.2 L429.1,322.6 L429.6,322.0 L430.1,321.5 L430.7,320.9
		L431.2,320.3 L431.7,319.8 L432.2,319.2 L432.7,318.7 L433.3,318.1 L433.8,317.5 L434.3,317.0 L434.8,316.4
		L435.3,315.9 L435.9,315.3 L436.4,314.8 L436.9,314.2 L437.4,313.7 L438.0,313.2 L438.5,312.6 L439.0,312.1
		L439.5,311.6 L440.0,311.0 L440.6,310.5 L441.1,310.0 L441.6,309.4 L442.1,308.9 L442.6,308.4 L443.2,307.9
		L443.7,307.4 L444.2,306.8 L444.7,306.3 L445.2,305.8 L445.8,305.3 L446.3,304.8 L446.8,304.3 L447.3,303.8
		L447.9,303.3 L448.4,302.8 L448.9,302.3 L449.4,301.8 L449.9,301.3 L450.5,300.8 L451.0,300.3 L451.5,299.8
		L452.0,299.3 L452.5,298.9 L453.1,298.4 L453.6,297.9 L454.1,297.4 L454.6,296.9 L455.1,296.5 L455.7,296.0
		L456.2,295.5 L456.7,295.1 L457.2,294.6 L457.8,294.1 L458.3,293.7 L458.8,293.2 L459.3,292.7 L459.8,292.3
		L460.4,291.8 L460.9,291.4 L461.4,290.9 L461.9,290.5 L462.4,290.0 L463.0,289.6 L463.5,289.1 L464.0,288.7
		L464.5,288.3 L465.0,287.8 L465.6,287.4 L466.1,287.0 L466.6,286.5 L467.1,286.1 L467.7,285.7 L468.2,285.2
		L468.7,284.8 L469.2,284.4 L469.7,284.0 L470.3,283.6 L470.8,283.1 L471.3,282.7 L471.8,282.3 L472.3,281.9
		L472.9,281.5 L473.4,281.1 L473.9,280.7 L474.4,280.3 L474.9,279.9 L475.5,279.5 L476.0,279.1 L476.5,278.7
		L477.0,278.3 L477.6,277.9 L478.1,277.5 L478.6,277.1 L479.1,276.7 L479.6,276.4 L480.2,276.0 L480.7,275.6
		L481.2,275.2 L481.7,274.8 L482.2,274.5 L482.8,274.1 L483.3,273.7 L483.8,273.3 L484.3,273.0 L484.8,272.6
		L485.4,272.2 L485.9,271.9 L486.4,271.5 L486.9,271.2 L487.5,270.8 L488.0,270.5 L488.5,270.1 L489.0,269.7
		L489.5,269.4 L490.1,269.0 L490.6,268.7 L491.1,268.4 L491.6,268.0 L492.1,267.7 L492.7,267.3 L493.2,267.0
		L493.7,266.6 L494.2,266.3 L494.8,266.0 L495.3,265.6 L495.8,265.3 L496.3,265.0 L496.8,264.7 L497.4,264.3
		L497.9,264.0 L498.4,263.7 L498.9,263.4 L499.4,263.1 L500.0,262.7 L500.5,262.4 L501.0,262.1 L501.5,261.8
		L502.0,261.5 L502.6,261.2 L503.1,260.9 L503.6,260.6 L504.1,260.3 L504.7,259.9 L505.2,259.6 L505.7,259.3
		L506.2,259.0 L506.7,258.8 L507.3,258.5 L507.8,258.2 L508.3,257.9 L508.8,257.6 L509.3,257.3 L509.9,257.0
		L510.4,256.7 L510.9,256.4 L511.4,256.2 L511.9,255.9 L512.5,255.6 L513.0,255.3 L513.5,255.0 L514.0,254.8
		L514.6,254.5 L515.1,254.2 L515.6,253.9 L516.1,253.7 L516.6,253.4 L517.2,253.1 L517.7,252.9 L518.2,252.6
		L518.7,252.3 L519.2,252.1 L519.8,251.8 L520.3,251.6 L520.8,251.3 L521.3,251.0 L521.8,250.8 L522.4,250.5
		L522.9,250.3 L523.4,250.0 L523.9,249.8 L524.5,249.5 L525.0,249.3 L525.5,249.0 L526.0,248.8 L526.5,248.6
		L527.1,248.3 L527.6,248.1 L528.1,247.8 L528.6,247.6 L529.1,247.4 L529.7,247.1 L530.2,246.9 L530.7,246.7
		L531.2,246.4 L531.7,246.2 L532.3,246.0 L532.8,245.8 L533.3,245.5 L533.8,245.3 L534.4,245.1 L534.9,244.9
		L535.4,244.6 L535.9,244.4 L536.4,244.2 L537.0,244.0 L537.5,243.8 L538.0,243.5 L538.5,243.3 L539.0,243.1
		L539.6,242.9 L540.1,242.7 L540.6,242.5 L541.1,242.3 L541.6,242.1 L542.2,241.9 L542.7,241.7 L543.2,241.5
		L543.7,241.3 L544.3,241.1 L544.8,240.9 L545.3,240.7 L545.8,240.5 L546.3,240.3 L546.9,240.1 L547.4,239.9
		L547.9,239.7 L548.4,239.5 L548.9,239.3 L549.5,239.1 L550.0,238.9 L550.5,238.7 L551.0,238.6 L551.6,238.4
		L552.1,238.2 L552.6,238.0 L553.1,237.8 L553.6,237.6 L554.2,237.5 L554.7,237.3 L555.2,237.1 L555.7,236.9
		L556.2,236.7 L556.8,236.6 L557.3,236.4 L557.8,236.2 L558.3,236.1 L558.8,235.9 L559.4,235.7 L559.9,235.5
		L560.4,235.4 L560.9,235.2 L561.5,235.0 L562.0,234.9 L562.5,234.7 L563.0,234.5 L563.5,234.4 L564.1,234.2
		L564.6,234.1 L565.1,233.9 L565.6,233.7 L566.1,233.6 L566.7,233.4 L567.2,233.3 L567.7,233.1 L568.2,233.0
		L568.7,232.8 L569.3,232.7 L569.8,232.5 L570.3,232.4 L570.8,232.2 L571.4,232.1 L571.9,231.9 L572.4,231.8
		L572.9,231.6 L573.4,231.5 L574.0,231.3 L574.5,231.2 L53.9,89.1 L54.4,89.1 L54.9,89.1 L55.5,89.1
		L56.0,89.1 L56.5,89.1 L57.0,89.1 L57.5,89.1 L58.1,89.1 L58.6,89.1 L59.1,89.1 L59.6,89.0
		L60.2,89.0 L60.7,89.0 L61.2,89.0 L61.7,89.0 L62.2,89.0 L62.8,89.0 L63.3,89.0 L63.8,89.0
		L64.3,89.0 L64.8,89.0 L65.4,88.9 L65.9,88.9 L66.4,88.9 L66.9,88.9 L67.4,88.9 L68.0,88.9
		L68.5,88.9 L69.0,88.8 L69.5,88.8 L70.1,88.8 L70.6,88.8 L71.1,88.8 L71.6,88.8 L72.1,88.7
		L72.7,88.7 L73.2,88.7 L73.7,88.7 L74.2,88.7 L74.7,88.6 L75.3,88.6 L75.8,88.6 L76.3,88.6
		L76.8,88.5 L77.3,88.5 L77.9,88.5 L78.4,88.5 L78.9,88.4 L79.4,88.4 L80.0,88.4 L80.5,88.3
		L81.0,88.3 L81.5,88.3 L82.0,88.3 L82.6,88.2 L83.1,88.2 L83.6,88.2 L84.1,88.1 L84.6,88.1
		L85.2,88.1 L85.7,88.0 L86.2,88.0 L86.7,88.0 L87.3,87.9 L87.8,87.9 L88.3,87.8 L88.8,87.8
		L89.3,87.8 L89.9,87.7 L90.4,87.7 L90.9,87.7 L91.4,87.6 L91.9,87.6 L92.5,87.5 L93.0,87.5
		L93.5,87.4 L94.0,87.4 L94.5,87.4 L95.1,87.3 L95.6,87.3 L96.1,87.2 L96.6,87.2 L97.2,87.1
		L97.7,87.1 L98.2,87.0 L98.7,87.0 L99.2,86.9 L99.8,86.9 L100.3,86.8 L100.8,86.8 L101.3,86.7
		L101.8,86.7 L102.4,86.6 L102.9,86.6 L103.4,86.5 L103.9,86.5 L104.4,86.4 L105.0,86.4 L105.5,86.3
		L106.0,86.2 L106.5,86.2 L107.1,86.1 L107.6,86.1 L108.1,86.0 L108.6,85.9 L109.1,85.9 L109.7,85.8
		L110.2,85.8 L110.7,85.7 L111.2,85.6 L111.7,85.6 L112.3,85.5 L112.8,85.4 L113.3,85.4 L113.8,85.3
		L114.3,85.3 L114.9,85.2 L115.4,85.1 L115.9,85.1 L116.4,85.0 L117.0,84.9 L117.5,84.8 L118.0,84.8
		L118.5,84.7 L119.0,84.6 L119.6,84.6 L120.1,84.5 L120.6,84.4 L121.1,84.3 L121.6,84.3 L122.2,84.2
		L122.7,84.1 L123.2,84.0 L123.7,84.0 L124.2,83.9 L124.8,83.8 L125.3,83.7 L125.8,83.7 L126.3,83.6
		L126.9,83.5 L127.4,83.4 L127.9,83.3 L128.4,83.3 L128.9,83.2 L129.5,83.1 L130.0,83.0 L130.5,82.9
		L131.0,82.8 L131.5,82.8 L132.1,82.7 L132.6,82.6 L133.1,82.5 L133.6,82.4 L134.1,82.3 L134.7,82.2
		L135.2,82.1 L135.7,82.1 L136.2,82.0 L136.8,81.9 L137.3,81.8 L137.8,81.7 L138.3,81.6 L138.8,81.5
		L139.4,81.4 L139.9,81.3 L140.4,81.2 L140.9,81.1 L141.4,81.0 L142.0,80.9 L142.5,80.8 L143.0,80.7
		L143.5,80.6 L144.1,80.5 L144.6,80.4 L145.1,80.3 L145.6,80.2 L146.1,80.1 L146.7,80.0 L147.2,79.9
		L147.7,79.8 L148.2,79.7 L148.7,79.6 L149.3,79.5 L149.8,79.4 L150.3,79.3 L150.8,79.2 L151.3,79.1
		L151.9,79.0 L152.4,78.9 L152.9,78.8 L153.4,78.7 L154.0,78.5 L154.5,78.4 L155.0,78.3 L155.5,78.2
		L156.0,78.1 L156.6,78.0 L157.1,77.9 L157.6,77.8 L158.1,77.6 L158.6,77.5 L159.2,77.4 L159.7,77.3
		L160.2,77.2 L160.7,77.1 L161.2,77.0 L161.8,76.8 L162.3,76.7 L162.8,76.6 L163.3,76.5 L163.9,76.4
		L164.4,76.2 L164.9,76.1 L165.4,76.0 L165.9,75.9 L166.5,75.7 L167.0,75.6 L167.5,75.5 L168.0,75.4
		L168.5,75.2 L169.1,75.1 L169.6,75.0 L170.1,74.9 L170.6,74.7 L171.1,74.6 L171.7,74.5 L172.2,74.3
		L172.7,74.2 L173.2,74.1 L173.8,74.0 L174.3,73.8 L174.8,73.7 L175.3,73.6 L175.8,73.4 L176.4,73.3
		L176.9,73.2 L177.4,73.0 L177.9,72.9 L178.4,72.7 L179.0,72.6 L179.5,72.5 L180.0,72.3 L180.5,72.2
		L181.0,72.1 L181.6,71.9 L182.1,71.8 L182.6,71.6 L183.1,71.5 L183.7,71.4 L184.2,71.2 L184.7,71.1
		L185.2,70.9 L185.7,70.8 L186.3,70.6 L186.8,70.5 L187.3,70.3 L187.8,70.2 L188.3,70.0 L188.9,69.9
		L189.4,69.8 L189.9,69.6 L190.4,69.5 L190.9,69.3 L191.5,69.2 L192.0,69.0 L192.5,68.9 L193.0,68.7
		L193.6,68.6 L194.1,68.4 L194.6,68.2 L195.1,68.1 L195.6,67.9 L196.2,67.8 L196.7,67.6 L197.2,67.5
		L197.7,67.3 L198.2,67.2 L198.8,67.0 L199.3,66.8 L199.8,66.7 L200.3,66.5 L200.9,66.4 L201.4,66.2
		L201.9,66.1 L202.4,65.9 L202.9,65.7 L203.5,65.6 L204.0,65.4 L204.5,65.2 L205.0,65.1 L205.5,64.9
		L206.1,64.8 L206.6,64.6 L207.1,64.4 L207.6,64.3 L208.1,64.1 L208.7,63.9 L209.2,63.8 L209.7,63.6
		L210.2,63.4 L210.8,63.3 L211.3,63.1 L211.8,62.9 L212.3,62.8 L212.8,62.6 L213.4,62.4 L213.9,62.2
		L214.4,62.1 L214.9,61.9 L215.4,61.7 L216.0,61.6 L216.5,61.4 L217.0,61.2 L217.5,61.0 L218.0,60.9
		L218.6,60.7 L219.1,60.5 L219.6,60.3 L220.1,60.2 L220.7,60.0 L221.2,59.8 L221.7,59.6 L222.2,59.5
		L222.7,59.3 L223.3,59.1 L223.8,58.9 L224.3,58.7 L224.8,58.6 L225.3,58.4 L225.9,58.2 L226.4,58.0
		L226.9,57.8 L227.4,57.7 L227.9,57.5 L228.5,57.3 L229.0,57.1 L229.5,56.9 L230.0,56.7 L230.6,56.6
		L231.1,56.4 L231.6,56.2 L232.1,56.0 L232.6,55.8 L233.2,55.6 L233.7,55.5 L234.2,55.3 L234.7,55.1
		L235.2,54.9 L235.8,54.7 L236.3,54.5 L236.8,54.3 L237.3,54.2 L237.8,54.0 L238.4,53.8 L238.9,53.6
		L239.4,53.4 L239.9,53.2 L240.5,53.0 L241.0,52.8 L241.5,52.7 L242.0,52.5 L242.5,52.3 L243.1,52.1
		L243.6,51.9 L244.1,51.7 L244.6,51.5 L245.1,51.3 L245.7,51.1 L246.2,50.9 L246.7,50.8 L247.2,50.6
		L247.7,50.4 L248.3,50.2 L248.8,50.0 L249.3,49.8 L249.8,49.6 L250.4,49.4 L250.9,49.2 L251.4,49.0
		L251.9,48.8 L252.4,48.7 L253.0,48.5 L253.5,48.3 L254.0,48.1 L254.5,47.9 L255.0,47.7 L255.6,47.5
		L256.1,47.3 L256.6,47.1 L257.1,46.9 L257.7,46.7 L258.2,46.5 L258.7,46.4 L259.2,46.2 L259.7,46.0
		L260.3,45.8 L260.8,45.6 L261.3,45.4 L261.8,45.2 L262.3,45.0 L262.9,44.8 L263.4,44.6 L263.9,44.4
		L264.4,44.2 L264.9,44.1 L265.5,43.9 L266.0,43.7 L266.5,43.5 L267.0,43.3 L267.6,43.1 L268.1,42.9
		L268.6,42.7 L269.1,42.5 L269.6,42.3 L270.2,42.2 L270.7,42.0 L271.2,41.8 L271.7,41.6 L272.2,41.4
		L272.8,41.2 L273.3,41.0 L273.8,40.8 L274.3,40.7 L274.8,40.5 L275.4,40.3 L275.9,40.1 L276.4,39.9
		L276.9,39.7 L277.5,39.6 L278.0,39.4 L278.5,39.2 L279.0,39.0 L279.5,38.8 L280.1,38.6 L280.6,38.5
		L281.1,38.3 L281.6,38.1 L282.1,37.9 L282.7,37.7 L283.2,37.6 L283.7,37.4 L284.2,37.2 L284.7,37.0
		L285.3,36.9 L285.8,36.7 L286.3,36.5 L286.8,36.3 L287.4,36.2 L287.9,36.0 L288.4,35.8 L288.9,35.7
		L289.4,35.5 L290.0,35.3 L290.5,35.2 L291.0,35.0 L291.5,34.8 L292.0,34.7 L292.6,34.5 L293.1,34.3
		L293.6,34.2 L294.1,34.0 L294.6,33.8 L295.2,33.7 L295.7,33.5 L296.2,33.4 L296.7,33.2 L297.3,33.1
		L297.8,32.9 L298.3,32.8 L298.8,32.6 L299.3,32.5 L299.9,32.3 L300.4,32.2 L300.9,32.0 L301.4,31.9
		L301.9,31.7 L302.5,31.6 L303.0,31.5 L303.5,31.3 L304.0,31.2 L304.5,31.0 L305.1,30.9 L305.6,30.8
		L306.1,30.6 L306.6,30.5 L307.2,30.4 L307.7,30.3 L308.2,30.1 L308.7,30.0 L309.2,29.9 L309.8,29.8
		L310.3,29.6 L310.8,29.5 L311.3,29.4 L311.8,29.3 L312.4,29.2 L312.9,29.1 L313.4,29.0 L313.9,28.9
		L314.5,28.8 L315.0,28.7 L315.5,28.6 L316.0,28.5 L316.5,28.4 L317.1,28.3 L317.6,28.2 L318.1,28.1
		L318.6,28.0 L319.1,27.9 L319.7,27.9 L320.2,27.8 L320.7,27.7 L321.2,27.6 L321.7,27.6 L322.3,27.5
		L322.8,27.4 L323.3,27.4 L323.8,27.3 L324.4,27.2 L324.9,27.2 L325.4,27.1 L325.9,27.1 L326.4,27.0
		L327.0,27.0 L327.5,26.9 L328.0,26.9 L328.5,26.9 L329.0,26.8 L329.6,26.8 L330.1,26.8 L330.6,26.8
		L331.1,26.7 L331.6,26.7 L332.2,26.7 L332.7,26.7 L333.2,26.7 L333.7,26.7 L334.3,26.7 L334.8,26.7
		L335.3,26.7 L335.8,26.7 L336.3,26.7 L336.9,26.7 L337.4,26.7 L337.9,26.8 L338.4,26.8 L338.9,26.8
		L339.5,26.9 L340.0,26.9 L340.5,27.0 L341.0,27.0 L341.5,27.1 L342.1,27.1 L342.6,27.2 L343.1,27.2
		L343.6,27.3 L344.2,27.4 L344.7,27.4 L345.2,27.5 L345.7,27.6 L346.2,27.7 L346.8,27.8 L347.3,27.9
		L347.8,28.0 L348.3,28.1 L348.8,28.2 L349.4,28.3 L349.9,28.5 L350.4,28.6 L350.9,28.7 L351.4,28.9
		L352.0,29.0 L352.5,29.2 L353.0,29.3 L353.5,29.5 L354.1,29.6 L354.6,29.8 L355.1,30.0 L355.6,30.2
		L356.1,30.4 L356.7,30.5 L357.2,30.7 L357.7,30.9 L358.2,31.2 L358.7,31.4 L359.3,31.6 L359.8,31.8
		L360.3,32.0 L360.8,32.3 L361.3,32.5 L361.9,32.8 L362.4,33.0 L362.9,33.3 L363.4,33.6 L364.0,33.8
		L364.5,34.1 L365.0,34.4 L365.5,34.7 L366.0,35.0 L366.6,35.3 L367.1,35.6 L367.6,36.0 L368.1,36.3
		L368.6,36.6 L369.2,37.0 L369.7,37.3 L370.2,37.7 L370.7,38.0 L371.2,38.4 L371.8,38.8 L372.3,39.2
		L372.8,39.6 L373.3,40.0 L373.9,40.4 L374.4,40.8 L374.9,41.2 L375.4,41.6 L375.9,42.1 L376.5,42.5
		L377.0,43.0 L377.5,43.4 L378.0,43.9 L378.5,44.4 L379.1,44.9 L379.6,45.4 L380.1,45.9 L380.6,46.4
		L381.2,46.9 L381.7,47.4 L382.2,48.0 L382.7,48.5 L383.2,49.1 L383.8,49.6 L384.3,50.2 L384.8,50.8
		L385.3,51.3 L385.8,51.9 L386.4,52.5 L386.9,53.2 L387.4,53.8 L387.9,54.4 L388.4,55.0 L389.0,55.7
		L389.5,56.3 L390.0,57.0 L390.5,57.7 L391.1,58.4 L391.6,59.1 L392.1,59.8 L392.6,60.5 L393.1,61.2
		L393.7,61.9 L394.2,62.6 L394.7,63.4 L395.2,64.1 L395.7,64.9 L396.3,65.7 L396.8,66.5 L397.3,67.3
		L397.8,68.1 L398.3,68.9 L398.9,69.7 L399.4,70.5 L399.9,71.4 L400.4,72.2 L401.0,73.1 L401.5,73.9
		L402.0,74.8 L402.5,75.7 L403.0,76.6 L403.6,77.5 L404.1,78.4 L404.6,79.3 L405.1,80.2 L405.6,81.2
		L406.2,82.1 L406.7,83.1 L407.2,84.0 L407.7,85.0 L408.2,86.0 L408.8,87.0 L409.3,88.0 L409.8,89.0
		L410.3,90.0 L410.9,91.1 L411.4,92.1 L411.9,93.1 L412.4,94.2 L412.9,95.2 L413.5,96.3 L414.0,97.4
		L414.5,98.5 L415.0,99.6 L415.5,100.7 L416.1,101.8 L416.6,102.9 L417.1,104.0 L417.6,105.2 L418.1,106.3
		L418.7,107.4 L419.2,108.6 L419.7,109.7 L420.2,110.9 L420.8,112.1 L421.3,113.3 L421.8,114.5 L422.3,115.6
		L422.8,116.8 L423.4,118.0 L423.9,119.3 L424.4,120.5 L424.9,121.7 L425.4,122.9 L426.0,124.1 L426.5,125.4
		L427.0,126.6 L427.5,127.9 L428.0,129.1 L428.6,130.4 L429.1,131.6 L429.6,132.9 L430.1,134.1 L430.7,135.4
		L431.2,136.7 L431.7,137.9 L432.2,139.2 L432.7,140.5 L433.3,141.8 L433.8,143.0 L434.3,144.3 L434.8,145.6
		L435.3,146.9 L435.9,148.2 L436.4,149.4 L436.9,150.7 L437.4,152.0 L438.0,153.3 L438.5,154.6 L439.0,155.8
		L439.5,157.1 L440.0,158.4 L440.6,159.7 L441.1,160.9 L441.6,162.2 L442.1,163.5 L442.6,164.7 L443.2,166.0
		L443.7,167.2 L444.2,168.5 L444.7,169.7 L445.2,170.9 L445.8,172.2 L446.3,173.4 L446.8,174.6 L447.3,175.8
		L447.9,177.0 L448.4,178.2 L448.9,179.4 L449.4,180.6 L449.9,181.8 L450.5,182.9 L451.0,184.1 L451.5,185.2
		L452.0,186.3 L452.5,187.5 L453.1,188.6 L453.6,189.7 L454.1,190.8 L454.6,191.9 L455.1,192.9 L455.7,194.0
		L456.2,195.0 L456.7,196.0 L457.2,197.1 L457.8,198.1 L458.3,199.1 L458.8,200.0 L459.3,201.0 L459.8,201.9
		L460.4,202.9 L460.9,203.8 L461.4,204.7 L461.9,205.6 L462.4,206.5 L463.0,207.3 L463.5,208.2 L464.0,209.0
		L464.5,209.8 L465.0,210.6 L465.6,211.4 L466.1,212.1 L466.6,212.9 L467.1,213.6 L467.7,214.3 L468.2,215.0
		L468.7,215.6 L469.2,216.3 L469.7,216.9 L470.3,217.6 L470.8,218.2 L471.3,218.8 L471.8,219.3 L472.3,219.9
		L472.9,220.4 L473.4,220.9 L473.9,221.5 L474.4,221.9 L474.9,222.4 L475.5,222.9 L476.0,223.3 L476.5,223.7
		L477.0,224.1 L477.6,224.5 L478.1,224.9 L478.6,225.3 L479.1,225.6 L479.6,225.9 L480.2,226.3 L480.7,226.6
		L481.2,226.8 L481.7,227.1 L482.2,227.4 L482.8,227.6 L483.3,227.9 L483.8,228.1 L484.3,228.3 L484.8,228.5
		L485.4,228.7 L485.9,228.9 L486.4,229.0 L486.9,229.2 L487.5,229.3 L488.0,229.5 L488.5,229.6 L489.0,229.7
		L489.5,229.9 L490.1,230.0 L490.6,230.1 L491.1,230.2 L491.6,230.2 L492.1,230.3 L492.7,230.4 L493.2,230.5
		L493.7,230.5 L494.2,230.6 L494.8,230.6 L495.3,230.7 L495.8,230.7 L496.3,230.7 L496.8,230.8 L497.4,230.8
		L497.9,230.8 L498.4,230.9 L498.9,230.9 L499.4,230.9 L500.0,230.9 L500.5,230.9 L501.0,231.0 L501.5,231.0
		L502.0,231.0 L502.6,231.0 L503.1,231.0 L503.6,231.0 L504.1,231.0 L504.7,231.0 L505.2,231.0 L505.7,231.0
		L506.2,231.0 L506.7,231.0 L507.3,231.0 L507.8,231.0 L508.3,231.0 L508.8,231.0 L509.3,231.0 L509.9,231.0
		L510.4,231.0 L510.9,231.0 L511.4,231.0 L511.9,231.0 L512.5,231.0 L513.0,231.0 L513.5,231.0 L514.0,231.0
		L514.6,231.0 L515.1,231.0 L515.6,231.0 L516.1,231.0 L516.6,231.0 L517.2,231.0 L517.7,231.0 L518.2,231.0
		L518.7,231.0 L519.2,231.0 L519.8,231.0 L520.3,231.0 L520.8,231.0 L521.3,231.0 L521.8,231.0 L522.4,231.0
		L522.9,231.0 L523.4,231.0 L523.9,231.0 L524.5,231.0 L525.0,231.0 L525.5,231.0 L526.0,231.0 L526.5,231.0
		L527.1,231.0 L527.6,231.0 L528.1,231.0 L528.6,231.0 L529.1,231.0 L529.7,231.0 L530.2,231.0 L530.7,231.0
		L531.2,231.0 L531.7,231.0 L532.3,231.0 L532.8,231.0 L533.3,231.0 L533.8,231.0 L534.4,231.0 L534.9,231.0
		L535.4,231.0 L535.9,231.0 L536.4,231.0 L537.0,231.0 L537.5,231.0 L538.0,231.0 L538.5,231.0 L539.0,231.0
		L539.6,231.0 L540.1,231.0 L540.6,231.0 L541.1,231.0 L541.6,231.0 L542.2,231.0 L542.7,231.0 L543.2,231.0
		L543.7,231.0 L544.3,231.0 L544.8,231.0 L545.3,231.0 L545.8,231.0 L546.3,231.0 L546.9,231.0 L547.4,231.0
		L547.9,231.0 L548.4,231.0 L548.9,231.0 L549.5,231.0 L550.0,231.0 L550.5,231.0 L551.0,231.0 L551.6,231.0
		L552.1,231.0 L552.6,231.0 L553.1,231.0 L553.6,231.0 L554.2,231.0 L554.7,231.0 L555.2,231.0 L555.7,231.0
		L556.2,231.0 L556.8,231.0 L557.3,231.0 L557.8,231.0 L558.3,231.0 L558.8,231.0 L559.4,231.0 L559.9,231.0
		L560.4,231.0 L560.9,231.0 L561.5,231.0 L562.0,231.0 L562.5,231.0 L563.0,231.0 L563.5,231.0 L564.1,231.0
		L564.6,231.0 L565.1,231.0 L565.6,231.0 L566.1,231.0 L566.7,231.0 L567.2,231.0 L567.7,231.0 L568.2,231.0
		L568.7,231.0 L569.3,231.0 L569.8,231.0 L570.3,231.0 L570.8,231.0 L571.4,231.0 L571.9,231.0 L572.4,231.0
		L572.9,231.0 L573.4,231.0 L574.0,231.0 L574.5,231.0  '/></g>
	</g>
<g fill="none" color="#FFFFFF" stroke="rgb(148,   0, 211)" stroke-width="2.00" stroke-linecap="butt" stroke-linejoin="miter">
</g>
<g fill="none" color="black" stroke="currentColor" stroke-width="2.00" stroke-linecap="butt" stroke-linejoin="miter">
</g>
<g fill="none" color="black" stroke="black" stroke-width="1.00" stroke-linecap="butt" stroke-linejoin="miter">
</g>
<g fill="none" color="black" stroke="currentColor" stroke-width="1.00" stroke-linecap="butt" stroke-linejoin="miter">
	<path stroke='black'  d='M53.9,18.1 L53.9,444.0 L575.0,444.0 L575.0,18.1 L53.9,18.1 Z  '/></g>
<g fill="none" color="black" stroke="currentColor" stroke-width="1.00" stroke-linecap="butt" stroke-linejoin="miter">
</g>
</g>
</svg>

