-3 5 
-2.94496 5.00715 
-2.89156 5.01961 
-2.83898 5.03708 
-2.78668 5.05942 
-2.73427 5.08663 
-2.68144 5.11874 
-2.62795 5.15582 
-2.57356 5.19799 
-2.51805 5.2454 
-2.46118 5.29822 
-2.40267 5.3567 
-2.34222 5.42113 
-2.27946 5.49187 
-2.21394 5.56941 
-2.14509 5.65435 
-2.07217 5.7475 
-1.99417 5.84997 
-1.90966 5.96331 
-1.81653 6.08981 
-1.71134 6.23309 
-1.58814 6.39914 
-1.43688 6.5968 
-1.25776 6.81639 
-1.12703 6.96316 
-1.01475 7.07834 
-0.911136 7.17466 
-0.815828 7.25407 
-0.72286 7.3225 
-0.633364 7.3795 
-0.547568 7.42562 
-0.465245 7.46175 
-0.385984 7.48883 
-0.309328 7.50766 
-0.234841 7.51888 
-0.162134 7.52304 
-0.0908651 7.5205 
-0.0207405 7.51158 
0.0484951 7.49647 
0.117066 7.47533 
0.185173 7.44823 
0.252999 7.41521 
0.320718 7.37626 
0.388496 7.33131 
0.456501 7.28028 
0.524903 7.223 
0.593884 7.15928 
0.663642 7.08885 
0.734398 7.01136 
0.806408 6.92639 
0.879974 6.83336 
0.955467 6.73156 
1.03335 6.62006 
1.11422 6.4976 
1.19887 6.36247 
1.28841 6.21231 
1.3844 6.04369 
1.48899 5.85185 
1.60451 5.63149 
1.72955 5.38488 
1.84731 5.14722 
1.9478 4.9421 
2.03299 4.76791 
2.10701 4.61729 
2.17614 4.47802 
2.24024 4.35075 
2.29976 4.23479 
2.3553 4.12899 
2.40747 4.03216 
2.45681 3.94324 
2.50379 3.86134 
2.54878 3.78574 
2.5921 3.71585 
2.63399 3.65122 
2.67469 3.59149 
2.71435 3.53637 
2.75313 3.48565 
2.79117 3.43914 
2.82858 3.39671 
2.86545 3.35825 
2.90188 3.32369 
2.93796 3.29296 
2.97375 3.26604 
3.00933 3.2429 
3.04477 3.22353 
3.08012 3.20794 
3.11546 3.19613 
3.15085 3.18814 
3.18634 3.18399 
3.222 3.18373 
3.25789 3.18741 
3.29406 3.19507 
3.33059 3.20678 
3.36754 3.22261 
3.40497 3.24264 
3.44296 3.26694 
3.48159 3.2956 
3.52093 3.32874 
3.56108 3.36646 
3.60214 3.40887 
3.6442 3.45613 
3.6874 3.50838 
3.73185 3.5658 
3.77772 3.6286 
3.82518 3.697 
3.87442 3.77128 
3.92569 3.85176 
3.97927 3.93883 
4.0355 4.03296 
4.09482 4.13473 
4.15776 4.24489 
4.22503 4.36437 
4.29758 4.49442 
4.37671 4.63674 
4.46432 4.79373 
4.5633 4.96889 
4.67821 5.16732 
4.81544 5.39457 
4.97593 5.64289 
5.11484 5.83935 
5.23288 5.99096 
5.34176 6.1172 
5.44185 6.22096 
5.53977 6.3105 
5.62941 6.38166 
5.71712 6.44096 
5.80245 6.48859 
5.8854 6.52516 
5.96615 6.55138 
6.04501 6.56792 
6.12229 6.57532 
6.19829 6.57401 
6.27331 6.56431 
6.3476 6.54641 
6.42142 6.52044 
6.49497 6.48641 
6.56849 6.44427 
6.64217 6.39389 
6.71623 6.33506 
6.79088 6.26747 
6.86635 6.19073 
6.9429 6.10432 
7.02081 6.00758 
7.10042 5.89968 
7.18211 5.77953 
7.26639 5.64574 
7.35387 5.49646 
7.44537 5.32921 
7.54194 5.14059 
7.64502 4.9259 
7.75635 4.67894 
7.87715 4.39379 
8.00459 4.07424 
8.12897 3.74436 
8.24147 3.43105 
8.33433 3.1618 
8.41696 2.91402 
8.4905 2.68671 
8.55647 2.47702 
8.61623 2.2819 
8.67087 2.09869 
8.72121 1.92524 
8.76783 1.75982 
8.81116 1.60107 
8.85151 1.44785 
8.88905 1.29921 
8.92388 1.15424 
8.95604 1.0121 
8.98546 0.871841 
9.012 0.732414 
9.03539 0.592494 
9.0552 0.450338 
9.07079 0.303498 
9.08107 0.148375 
9.08429 -0.0205085 
9.07749 -0.211188 
9.0563 -0.432095 
9.01745 -0.682126 
8.97231 -0.905298 
8.92414 -1.11053 
8.8714 -1.31449 
8.81545 -1.51615 
8.7536 -1.7272 
8.69039 -1.93344 
8.62214 -2.14775 
8.54922 -2.3688 
8.47159 -2.5962 
8.38885 -2.83039 
8.3002 -3.07249 
8.20431 -3.32431 
8.09916 -3.5885 
7.98168 -3.86865 
7.84741 -4.16884 
7.69182 -4.48893 
7.53114 -4.78662 
7.39712 -5.00804 
7.28256 -5.17721 
7.17618 -5.31722 
7.07808 -5.43136 
6.98681 -5.52439 
6.89707 -5.60326 
6.80999 -5.66766 
6.72593 -5.71832 
6.64485 -5.75635 
6.56648 -5.78289 
6.49051 -5.79894 
6.41657 -5.80533 
6.34436 -5.80274 
6.27358 -5.79167 
6.20397 -5.7725 
6.1353 -5.74551 
6.06737 -5.71089 
6 -5.66874 
5.93303 -5.6191 
5.86629 -5.56195 
5.79964 -5.49718 
5.73294 -5.42463 
5.66603 -5.34409 
5.59877 -5.25523 
5.531 -5.15766 
5.46253 -5.05085 
5.39319 -4.93417 
5.32275 -4.80678 
5.25097 -4.66767 
5.17755 -4.51552 
5.1022 -4.34871 
5.02457 -4.16523 
4.94438 -3.96279 
4.86158 -3.7392 
4.77684 -3.49376 
4.69214 -3.22977 
4.61085 -2.95621 
4.53631 -2.68459 
4.47035 -2.42364 
4.41316 -2.17721 
4.36396 -1.94545 
4.32172 -1.72658 
4.28546 -1.51818 
4.25439 -1.31774 
4.22794 -1.12301 
4.20572 -0.931939 
4.18751 -0.742741 
4.17324 -0.553813 
4.16297 -0.363716 
4.15684 -0.171181 
4.15513 0.0248524 
4.15815 0.225153 
4.16626 0.430089 
4.17975 0.639547 
4.19884 0.852953 
4.2236 1.06944 
4.25396 1.28812 
4.28982 1.50838 
4.33107 1.73003 
4.37773 1.95338 
4.42999 2.17921 
4.48825 2.40866 
4.55317 2.6431 
4.62565 2.88387 
4.70676 3.13179 
4.7973 3.38592 
4.89694 3.64156 
5.00312 3.88908 
5.10347 4.10117 
5.19719 4.281 
5.28472 4.43361 
5.36707 4.56392 
5.44892 4.68085 
5.52903 4.78325 
5.60685 4.87136 
5.68229 4.94611 
5.75547 5.00858 
5.82662 5.05984 
5.896 5.1008 
5.96388 5.13223 
6.03052 5.15474 
6.09611 5.1688 
6.16087 5.17477 
6.22497 5.1729 
6.28855 5.16337 
6.35176 5.14628 
6.41472 5.12167 
6.47754 5.08952 
6.54035 5.04977 
6.60323 5.00226 
6.66631 4.94682 
6.72968 4.88318 
6.79345 4.81102 
6.85774 4.72994 
6.92266 4.63944 
6.98833 4.53889 
7.0549 4.42755 
7.12252 4.30449 
7.19133 4.16859 
7.26151 4.01844 
7.33323 3.85233 
7.40665 3.66816 
7.48185 3.4634 
7.55877 3.23522 
7.63695 2.98091 
7.71526 2.69906 
7.7915 2.39152 
7.86256 2.06457 
7.92539 1.72721 
7.97792 1.38732 
8.01929 1.04937 
8.04933 0.714494 
8.06809 0.381713 
8.07552 0.0491287 
8.07136 -0.285191 
8.05521 -0.622647 
8.02663 -0.96382 
7.98525 -1.30844 
7.93083 -1.65554 
7.86328 -2.00366 
7.78264 -2.35056 
7.68934 -2.6922 
7.58499 -3.02112 
7.4809 -3.30646 
7.3806 -3.54806 
7.286 -3.74969 
7.19732 -3.91759 
7.11393 -4.05796 
7.03087 -4.18168 
6.95406 -4.28225 
6.87818 -4.36882 
6.80399 -4.44142 
6.73178 -4.50077 
6.66161 -4.54785 
6.59336 -4.58368 
6.52686 -4.60916 
6.46192 -4.62509 
6.39835 -4.63209 
6.33597 -4.63069 
6.27462 -4.62129 
6.21414 -4.60421 
6.15442 -4.57967 
6.09534 -4.54783 
6.03679 -4.5088 
5.97869 -4.46263 
5.92095 -4.40931 
5.8635 -4.34879 
5.80627 -4.28096 
5.74919 -4.20566 
5.69221 -4.1227 
5.63527 -4.03179 
5.57832 -3.9326 
5.52132 -3.82473 
5.46423 -3.70767 
5.40704 -3.58084 
5.34973 -3.44354 
5.29232 -3.29497 
5.23489 -3.13422 
5.17758 -2.96033 
5.12062 -2.77234 
5.06443 -2.56951 
5.00965 -2.35159 
4.95717 -2.11927 
4.90815 -1.87447 
4.8638 -1.62039 
4.8252 -1.36089 
4.79309 -1.09963 
4.76781 -0.839368 
4.7494 -0.581746 
4.73772 -0.327402 
4.73258 -0.0762892 
4.7338 0.172033 
4.74126 0.418166 
4.7549 0.662714 
4.77473 0.906182 
4.80079 1.1489 
4.83315 1.39092 
4.87188 1.63195 
4.91696 1.87113 
4.96822 2.10695 
5.02524 2.33709 
5.08725 2.55853 
5.15311 2.76799 
5.22153 2.96254 
5.28756 3.13139 
5.35491 3.28674 
5.42246 3.42713 
5.48946 3.55231 
5.55546 3.66281 
5.62025 3.75953 
5.68377 3.84351 
5.74606 3.91579 
5.8072 3.97727 
5.86731 4.02875 
5.92651 4.07092 
5.98491 4.1043 
6.04263 4.12935 
6.09977 4.14642 
6.15642 4.15576 
6.21267 4.15757 
6.26859 4.152 
6.32426 4.13912 
6.37974 4.11896 
6.43508 4.09151 
6.49035 4.05669 
6.54559 4.01441 
6.60086 3.9645 
6.6562 3.90675 
6.71165 3.8409 
6.76725 3.76661 
6.82304 3.68349 
6.87905 3.59106 
6.9353 3.48875 
6.99181 3.37588 
7.04857 3.25163 
7.10554 3.11506 
7.16268 2.96505 
7.21985 2.80028 
7.27684 2.61928 
7.33333 2.42044 
7.38876 2.20213 
7.44232 1.96301 
7.49285 1.70242 
7.53879 1.42102 
7.57834 1.12114 
7.60967 0.806678 
7.63128 0.482269 
7.64212 0.152319 
7.64163 -0.179584 
7.62959 -0.510708 
7.60602 -0.838834 
7.57114 -1.16175 
7.5254 -1.47672 
7.46966 -1.78013 
7.40528 -2.06733 
7.33426 -2.33327 
7.26383 -2.55913 
7.1943 -2.75341 
7.12244 -2.92943 
7.0543 -3.07622 
6.98556 -3.20665 
6.91734 -3.32002 
6.85033 -3.41688 
6.78485 -3.49837 
6.72102 -3.56582 
6.6588 -3.62055 
6.59811 -3.66372 
6.5388 -3.69633 
6.48075 -3.71921 
6.42382 -3.73304 
6.36788 -3.73836 
6.31284 -3.7356 
6.25858 -3.7251 
6.20504 -3.70713 
6.15212 -3.68188 
6.09978 -3.64949 
6.04796 -3.61002 
5.99661 -3.56353 
5.94569 -3.51 
5.89517 -3.44937 
5.84504 -3.38155 
5.79527 -3.3064 
5.74585 -3.22371 
5.6968 -3.13326 
5.64812 -3.03475 
5.59984 -2.92782 
5.55202 -2.81206 
5.50471 -2.687 
5.45804 -2.55208 
5.41213 -2.4067 
5.3672 -2.25022 
5.32351 -2.082 
5.28144 -1.90145 
5.24146 -1.70816 
5.2042 -1.50205 
5.1704 -1.28356 
5.14087 -1.05378 
5.11647 -0.814507 
5.09794 -0.568105 
5.08587 -0.317167 
5.08062 -0.0642011 
5.08235 0.188603 
5.09105 0.439433 
5.10658 0.68677 
5.12872 0.929219 
5.15714 1.16534 
5.1914 1.39354 
5.23092 1.61207 
5.27497 1.81913 
5.32271 2.0131 
5.37327 2.19272 
5.42581 2.35727 
5.47958 2.5066 
5.534 2.641 
5.58862 2.76111 
5.64313 2.86775 
5.69734 2.96183 
5.75113 3.04423 
5.80446 3.11577 
5.85731 3.17719 
5.9097 3.22912 
5.96165 3.2721 
6.01319 3.30658 
6.06437 3.33292 
6.11523 3.35142 
6.16579 3.36231 
6.2161 3.36576 
6.26619 3.36187 
6.31609 3.35073 
6.36583 3.33235 
6.41543 3.30671 
6.46491 3.27375 
6.5143 3.23336 
6.56359 3.18539 
6.61281 3.12964 
6.66195 3.06586 
6.711 2.99373 
6.75995 2.91289 
6.80878 2.82289 
6.85744 2.72322 
6.90587 2.61325 
6.95398 2.49226 
7.00162 2.35942 
7.04863 2.21378 
7.09475 2.05423 
7.13961 1.87958 
7.18273 1.68856 
7.22343 1.47993 
7.26083 1.2527 
7.29375 1.00644 
7.32081 0.741649 
7.34043 0.460231 
7.3511 0.165609 
7.35159 -0.13745 
7.34114 -0.443329 
7.31963 -0.746053 
7.28758 -1.03965 
7.24611 -1.31842 
7.1969 -1.57739 
7.14517 -1.80006 
7.08895 -2.00349 
7.03343 -2.17525 
6.97569 -2.32974 
6.91698 -2.4658 
6.86124 -2.57808 
6.80502 -2.67652 
6.74893 -2.76118 
6.69339 -2.83266 
6.6386 -2.89181 
6.58467 -2.93954 
6.53162 -2.97668 
6.47943 -3.00398 
6.42807 -3.02208 
6.3775 -3.03151 
6.32765 -3.03271 
6.27848 -3.02604 
6.22995 -3.01176 
6.18202 -2.99009 
6.13466 -2.96118 
6.08785 -2.92513 
6.04156 -2.88198 
5.99578 -2.83174 
5.95052 -2.77436 
5.90577 -2.70977 
5.86155 -2.63784 
5.81789 -2.55839 
5.77482 -2.47119 
5.73239 -2.37597 
5.69067 -2.27239 
5.64977 -2.16007 
5.60979 -2.03854 
5.57091 -1.9073 
5.53332 -1.76576 
5.4973 -1.61331 
5.46319 -1.44932 
5.43143 -1.27319 
5.40257 -1.08449 
5.37729 -0.88307 
5.35638 -0.669273 
5.34073 -0.444177 
5.33118 -0.209766 
5.3285 0.0310302 
5.33318 0.2745 
5.34536 0.5165 
5.36479 0.752865 
5.39087 0.979797 
5.42271 1.19417 
5.45929 1.39371 
5.49957 1.57706 
5.54255 1.74374 
5.58742 1.89394 
5.6335 2.02832 
5.68032 2.14782 
5.72751 2.2535 
5.77483 2.34639 
5.82214 2.42749 
5.86933 2.49766 
5.91635 2.55767 
5.96317 2.60816 
6.00978 2.64967 
6.05618 2.68264 
6.10236 2.70743 
6.14835 2.72433 
6.19415 2.73355 
6.23976 2.73525 
6.2852 2.72954 
6.33047 2.71646 
6.37557 2.69604 
6.4205 2.66822 
6.46525 2.63294 
6.50982 2.59006 
6.55418 2.53941 
6.59831 2.48076 
6.64218 2.41385 
6.68574 2.33832 
6.72892 2.25377 
6.77165 2.15971 
6.81381 2.05558 
6.85527 1.9407 
6.89582 1.8143 
6.93524 1.67548 
6.97318 1.52322 
7.00921 1.35638 
7.04276 1.17375 
7.07306 0.974133 
7.0991 0.756565 
7.11962 0.520678 
7.1331 0.267316 
7.13791 -0.000694265 
7.13265 -0.277928 
7.11657 -0.556472 
7.08994 -0.827141 
7.05408 -1.08137 
7.01372 -1.30004 
6.97045 -1.48944 
6.92313 -1.66141 
6.87601 -1.80603 
6.82686 -1.93489 
6.77668 -2.04734 
6.72621 -2.14384 
6.67592 -2.22539 
6.6261 -2.29319 
6.57689 -2.34842 
6.52837 -2.39215 
6.48056 -2.4253 
6.43345 -2.44866 
6.38703 -2.46286 
6.34127 -2.46843 
6.29613 -2.46577 
6.25161 -2.45521 
6.20768 -2.43699 
6.16433 -2.4113 
6.12155 -2.37826 
6.07936 -2.33792 
6.03774 -2.29031 
5.99673 -2.2354 
5.95635 -2.17308 
5.91664 -2.10325 
5.87765 -2.0257 
5.83944 -1.94019 
5.8021 -1.84644 
5.76574 -1.74406 
5.7305 -1.63263 
5.69655 -1.51163 
5.66413 -1.38047 
5.63352 -1.23847 
5.6051 -1.08489 
5.57933 -0.918994 
5.55683 -0.740091 
5.53838 -0.547763 
5.5249 -0.342178 
5.51746 -0.124606 
5.51709 0.101998 
5.52454 0.332677 
5.53999 0.560939 
5.56289 0.78007 
5.59208 0.984615 
5.62419 1.16156 
5.66013 1.32398 
5.6988 1.47033 
5.73929 1.60049 
5.78092 1.71517 
5.82321 1.81544 
5.86586 1.90245 
5.90865 1.97732 
5.95146 2.04102 
5.99422 2.09439 
6.03687 2.13813 
6.07939 2.1728 
6.12177 2.19884 
6.16399 2.21662 
6.20604 2.2264 
6.24792 2.22838 
6.28962 2.22269 
6.33112 2.20939 
6.37241 2.18851 
6.41346 2.16002 
6.45425 2.12382 
6.49475 2.07979 
6.53491 2.02773 
6.57467 1.96739 
6.61397 1.89848 
6.65273 1.82061 
6.69083 1.73332 
6.72812 1.63608 
6.76445 1.52822 
6.79957 1.40899 
6.83319 1.2775 
6.86492 1.1327 
6.89425 0.973403 
6.92049 0.798332 
6.94274 0.606215 
6.95979 0.39611 
6.9701 0.168092 
6.9719 -0.0754992 
6.9636 -0.328532 
6.9445 -0.580785 
6.91539 -0.82047 
6.88085 -1.02528 
6.84305 -1.19996 
6.80114 -1.35654 
6.75932 -1.4858 
6.7155 -1.59925 
6.67067 -1.6966 
6.62548 -1.77856 
6.58038 -1.84625 
6.53562 -1.90087 
