\relax 
\@writefile{toc}{\contentsline {section}{\numberline {1}Introduction}{1}}
\newlabel{eq:ellint}{{1}{1}}
\@writefile{lof}{\contentsline {figure}{\numberline {1}{\ignorespaces Plot of equation 1\hbox {} as a function of $k$ for $\phi ={\begingroup \pi \endgroup \over 2}$. Both using GSL implementation and my implementation}}{1}}
\newlabel{fig:k}{{1}{1}}
\@writefile{toc}{\contentsline {section}{\numberline {2}My Implementation}{1}}
\@writefile{lof}{\contentsline {figure}{\numberline {2}{\ignorespaces Plot of equation 1\hbox {} as a function of $\phi $ for $k={\begingroup 1\endgroup \over 2}$. Both using GSL implementation and my implementation}}{1}}
\newlabel{fig:phi}{{2}{1}}
\@writefile{toc}{\contentsline {section}{\numberline {3}Comparison to GSL function}{1}}
