<?xml version="1.0" encoding="utf-8"  standalone="no"?>
<svg 
 width="600" height="480"
 viewBox="0 0 600 480"
 xmlns="http://www.w3.org/2000/svg"
 xmlns:xlink="http://www.w3.org/1999/xlink"
>

<title>Gnuplot</title>
<desc>Produced by GNUPLOT 5.2 patchlevel 2 </desc>

<g id="gnuplot_canvas">

<rect x="0" y="0" width="600" height="480" fill="none"/>
<defs>

	<circle id='gpDot' r='0.5' stroke-width='0.5'/>
	<path id='gpPt0' stroke-width='0.222' stroke='currentColor' d='M-1,0 h2 M0,-1 v2'/>
	<path id='gpPt1' stroke-width='0.222' stroke='currentColor' d='M-1,-1 L1,1 M1,-1 L-1,1'/>
	<path id='gpPt2' stroke-width='0.222' stroke='currentColor' d='M-1,0 L1,0 M0,-1 L0,1 M-1,-1 L1,1 M-1,1 L1,-1'/>
	<rect id='gpPt3' stroke-width='0.222' stroke='currentColor' x='-1' y='-1' width='2' height='2'/>
	<rect id='gpPt4' stroke-width='0.222' stroke='currentColor' fill='currentColor' x='-1' y='-1' width='2' height='2'/>
	<circle id='gpPt5' stroke-width='0.222' stroke='currentColor' cx='0' cy='0' r='1'/>
	<use xlink:href='#gpPt5' id='gpPt6' fill='currentColor' stroke='none'/>
	<path id='gpPt7' stroke-width='0.222' stroke='currentColor' d='M0,-1.33 L-1.33,0.67 L1.33,0.67 z'/>
	<use xlink:href='#gpPt7' id='gpPt8' fill='currentColor' stroke='none'/>
	<use xlink:href='#gpPt7' id='gpPt9' stroke='currentColor' transform='rotate(180)'/>
	<use xlink:href='#gpPt9' id='gpPt10' fill='currentColor' stroke='none'/>
	<use xlink:href='#gpPt3' id='gpPt11' stroke='currentColor' transform='rotate(45)'/>
	<use xlink:href='#gpPt11' id='gpPt12' fill='currentColor' stroke='none'/>
	<path id='gpPt13' stroke-width='0.222' stroke='currentColor' d='M0,1.330 L1.265,0.411 L0.782,-1.067 L-0.782,-1.076 L-1.265,0.411 z'/>
	<use xlink:href='#gpPt13' id='gpPt14' fill='currentColor' stroke='none'/>
	<filter id='textbox' filterUnits='objectBoundingBox' x='0' y='0' height='1' width='1'>
	  <feFlood flood-color='white' flood-opacity='1' result='bgnd'/>
	  <feComposite in='SourceGraphic' in2='bgnd' operator='atop'/>
	</filter>
	<filter id='greybox' filterUnits='objectBoundingBox' x='0' y='0' height='1' width='1'>
	  <feFlood flood-color='lightgrey' flood-opacity='1' result='grey'/>
	  <feComposite in='SourceGraphic' in2='grey' operator='atop'/>
	</filter>
</defs>
<g fill="none" color="white" stroke="currentColor" stroke-width="1.00" stroke-linecap="butt" stroke-linejoin="miter">
</g>
<g fill="none" color="black" stroke="currentColor" stroke-width="1.00" stroke-linecap="butt" stroke-linejoin="miter">
	<path stroke='black'  d='M55.3,422.4 L64.3,422.4 M575.0,422.4 L566.0,422.4  '/>	<g transform="translate(47.0,426.3)" stroke="none" fill="black" font-family="Arial" font-size="12.00"  text-anchor="end">
		<text><tspan font-family="Arial" >-6</tspan></text>
	</g>
</g>
<g fill="none" color="black" stroke="currentColor" stroke-width="1.00" stroke-linecap="butt" stroke-linejoin="miter">
	<path stroke='black'  d='M55.3,369.8 L64.3,369.8 M575.0,369.8 L566.0,369.8  '/>	<g transform="translate(47.0,373.7)" stroke="none" fill="black" font-family="Arial" font-size="12.00"  text-anchor="end">
		<text><tspan font-family="Arial" >-4</tspan></text>
	</g>
</g>
<g fill="none" color="black" stroke="currentColor" stroke-width="1.00" stroke-linecap="butt" stroke-linejoin="miter">
	<path stroke='black'  d='M55.3,317.2 L64.3,317.2 M575.0,317.2 L566.0,317.2  '/>	<g transform="translate(47.0,321.1)" stroke="none" fill="black" font-family="Arial" font-size="12.00"  text-anchor="end">
		<text><tspan font-family="Arial" >-2</tspan></text>
	</g>
</g>
<g fill="none" color="black" stroke="currentColor" stroke-width="1.00" stroke-linecap="butt" stroke-linejoin="miter">
	<path stroke='black'  d='M55.3,264.6 L64.3,264.6 M575.0,264.6 L566.0,264.6  '/>	<g transform="translate(47.0,268.5)" stroke="none" fill="black" font-family="Arial" font-size="12.00"  text-anchor="end">
		<text><tspan font-family="Arial" > 0</tspan></text>
	</g>
</g>
<g fill="none" color="black" stroke="currentColor" stroke-width="1.00" stroke-linecap="butt" stroke-linejoin="miter">
	<path stroke='black'  d='M55.3,211.9 L64.3,211.9 M575.0,211.9 L566.0,211.9  '/>	<g transform="translate(47.0,215.8)" stroke="none" fill="black" font-family="Arial" font-size="12.00"  text-anchor="end">
		<text><tspan font-family="Arial" > 2</tspan></text>
	</g>
</g>
<g fill="none" color="black" stroke="currentColor" stroke-width="1.00" stroke-linecap="butt" stroke-linejoin="miter">
	<path stroke='black'  d='M55.3,159.3 L64.3,159.3 M575.0,159.3 L566.0,159.3  '/>	<g transform="translate(47.0,163.2)" stroke="none" fill="black" font-family="Arial" font-size="12.00"  text-anchor="end">
		<text><tspan font-family="Arial" > 4</tspan></text>
	</g>
</g>
<g fill="none" color="black" stroke="currentColor" stroke-width="1.00" stroke-linecap="butt" stroke-linejoin="miter">
	<path stroke='black'  d='M55.3,106.7 L64.3,106.7 M575.0,106.7 L566.0,106.7  '/>	<g transform="translate(47.0,110.6)" stroke="none" fill="black" font-family="Arial" font-size="12.00"  text-anchor="end">
		<text><tspan font-family="Arial" > 6</tspan></text>
	</g>
</g>
<g fill="none" color="black" stroke="currentColor" stroke-width="1.00" stroke-linecap="butt" stroke-linejoin="miter">
	<path stroke='black'  d='M55.3,54.1 L64.3,54.1 M575.0,54.1 L566.0,54.1  '/>	<g transform="translate(47.0,58.0)" stroke="none" fill="black" font-family="Arial" font-size="12.00"  text-anchor="end">
		<text><tspan font-family="Arial" > 8</tspan></text>
	</g>
</g>
<g fill="none" color="black" stroke="currentColor" stroke-width="1.00" stroke-linecap="butt" stroke-linejoin="miter">
	<path stroke='black'  d='M55.3,422.4 L55.3,413.4 M55.3,54.1 L55.3,63.1  '/>	<g transform="translate(55.3,444.3)" stroke="none" fill="black" font-family="Arial" font-size="12.00"  text-anchor="middle">
		<text><tspan font-family="Arial" >-4</tspan></text>
	</g>
</g>
<g fill="none" color="black" stroke="currentColor" stroke-width="1.00" stroke-linecap="butt" stroke-linejoin="miter">
	<path stroke='black'  d='M129.5,422.4 L129.5,413.4 M129.5,54.1 L129.5,63.1  '/>	<g transform="translate(129.5,444.3)" stroke="none" fill="black" font-family="Arial" font-size="12.00"  text-anchor="middle">
		<text><tspan font-family="Arial" >-2</tspan></text>
	</g>
</g>
<g fill="none" color="black" stroke="currentColor" stroke-width="1.00" stroke-linecap="butt" stroke-linejoin="miter">
	<path stroke='black'  d='M203.8,422.4 L203.8,413.4 M203.8,54.1 L203.8,63.1  '/>	<g transform="translate(203.8,444.3)" stroke="none" fill="black" font-family="Arial" font-size="12.00"  text-anchor="middle">
		<text><tspan font-family="Arial" > 0</tspan></text>
	</g>
</g>
<g fill="none" color="black" stroke="currentColor" stroke-width="1.00" stroke-linecap="butt" stroke-linejoin="miter">
	<path stroke='black'  d='M278.0,422.4 L278.0,413.4 M278.0,54.1 L278.0,63.1  '/>	<g transform="translate(278.0,444.3)" stroke="none" fill="black" font-family="Arial" font-size="12.00"  text-anchor="middle">
		<text><tspan font-family="Arial" > 2</tspan></text>
	</g>
</g>
<g fill="none" color="black" stroke="currentColor" stroke-width="1.00" stroke-linecap="butt" stroke-linejoin="miter">
	<path stroke='black'  d='M352.3,422.4 L352.3,413.4 M352.3,54.1 L352.3,63.1  '/>	<g transform="translate(352.3,444.3)" stroke="none" fill="black" font-family="Arial" font-size="12.00"  text-anchor="middle">
		<text><tspan font-family="Arial" > 4</tspan></text>
	</g>
</g>
<g fill="none" color="black" stroke="currentColor" stroke-width="1.00" stroke-linecap="butt" stroke-linejoin="miter">
	<path stroke='black'  d='M426.5,422.4 L426.5,413.4 M426.5,54.1 L426.5,63.1  '/>	<g transform="translate(426.5,444.3)" stroke="none" fill="black" font-family="Arial" font-size="12.00"  text-anchor="middle">
		<text><tspan font-family="Arial" > 6</tspan></text>
	</g>
</g>
<g fill="none" color="black" stroke="currentColor" stroke-width="1.00" stroke-linecap="butt" stroke-linejoin="miter">
	<path stroke='black'  d='M500.8,422.4 L500.8,413.4 M500.8,54.1 L500.8,63.1  '/>	<g transform="translate(500.8,444.3)" stroke="none" fill="black" font-family="Arial" font-size="12.00"  text-anchor="middle">
		<text><tspan font-family="Arial" > 8</tspan></text>
	</g>
</g>
<g fill="none" color="black" stroke="currentColor" stroke-width="1.00" stroke-linecap="butt" stroke-linejoin="miter">
	<path stroke='black'  d='M575.0,422.4 L575.0,413.4 M575.0,54.1 L575.0,63.1  '/>	<g transform="translate(575.0,444.3)" stroke="none" fill="black" font-family="Arial" font-size="12.00"  text-anchor="middle">
		<text><tspan font-family="Arial" > 10</tspan></text>
	</g>
</g>
<g fill="none" color="black" stroke="currentColor" stroke-width="1.00" stroke-linecap="butt" stroke-linejoin="miter">
</g>
<g fill="none" color="black" stroke="currentColor" stroke-width="1.00" stroke-linecap="butt" stroke-linejoin="miter">
	<path stroke='black'  d='M55.3,54.1 L55.3,422.4 L575.0,422.4 L575.0,54.1 L55.3,54.1 Z  '/></g>
<g fill="none" color="black" stroke="currentColor" stroke-width="1.00" stroke-linecap="butt" stroke-linejoin="miter">
	<g transform="translate(18.9,238.3) rotate(270)" stroke="none" fill="black" font-family="Arial" font-size="20.00"  text-anchor="middle">
		<text><tspan font-family="Arial" >dθ/dt</tspan></text>
	</g>
</g>
<g fill="none" color="black" stroke="currentColor" stroke-width="1.00" stroke-linecap="butt" stroke-linejoin="miter">
	<g transform="translate(315.1,473.9)" stroke="none" fill="black" font-family="Arial" font-size="20.00"  text-anchor="middle">
		<text><tspan font-family="Arial" >θ</tspan></text>
	</g>
</g>
<g fill="none" color="black" stroke="currentColor" stroke-width="1.00" stroke-linecap="butt" stroke-linejoin="miter">
	<g transform="translate(315.1,31.0)" stroke="none" fill="black" font-family="Arial" font-size="12.00"  text-anchor="middle">
		<text><tspan font-family="Arial" >Phase Space</tspan></text>
	</g>
</g>
	<g id="gnuplot_plot_1" ><title>Pendulum trajectory</title>
<g fill="none" color="black" stroke="currentColor" stroke-width="1.00" stroke-linecap="butt" stroke-linejoin="miter">
	<g transform="translate(507.9,76.0)" stroke="none" fill="black" font-family="Arial" font-size="12.00"  text-anchor="end">
		<text><tspan font-family="Arial" >Pendulum trajectory</tspan></text>
	</g>
</g>
<g fill="none" color="black" stroke="currentColor" stroke-width="1.00" stroke-linecap="butt" stroke-linejoin="miter">
	<path stroke='rgb(148,   0, 211)'  d='M516.2,72.1 L558.4,72.1 M92.4,133.0 L97.0,132.4 L101.3,131.1 L105.3,129.4 L109.0,127.4 L112.4,125.2
		L115.7,122.8 L118.7,120.5 L121.5,118.1 L124.2,115.8 L126.7,113.5 L129.1,111.3 L131.3,109.2 L133.4,107.2
		L135.5,105.2 L137.4,103.4 L139.2,101.6 L141.0,99.9 L142.6,98.3 L144.2,96.8 L145.8,95.3 L147.3,93.9
		L148.7,92.6 L150.1,91.4 L151.4,90.2 L152.7,89.1 L153.9,88.0 L155.1,87.0 L156.2,86.0 L157.3,85.1
		L158.4,84.2 L159.5,83.3 L160.5,82.5 L161.5,81.8 L162.4,81.0 L163.4,80.3 L164.3,79.7 L165.2,79.0
		L166.0,78.4 L166.9,77.9 L167.7,77.3 L168.5,76.8 L169.3,76.3 L170.0,75.8 L170.8,75.4 L171.5,74.9
		L172.2,74.5 L172.9,74.1 L173.6,73.7 L174.2,73.4 L174.9,73.0 L175.5,72.7 L176.1,72.4 L176.7,72.1
		L177.3,71.8 L177.9,71.5 L178.5,71.2 L179.1,71.0 L179.6,70.7 L180.2,70.5 L180.7,70.3 L181.2,70.1
		L181.7,69.9 L182.2,69.7 L182.7,69.5 L183.2,69.3 L183.7,69.2 L184.2,69.0 L184.6,68.9 L185.1,68.7
		L185.5,68.6 L185.9,68.5 L186.4,68.3 L186.8,68.2 L187.2,68.1 L187.6,68.0 L188.0,67.9 L188.4,67.8
		L188.8,67.7 L189.2,67.6 L189.6,67.6 L190.0,67.5 L190.3,67.4 L190.7,67.3 L191.1,67.3 L191.4,67.2
		L191.8,67.2 L192.1,67.1 L192.4,67.1 L192.8,67.0 L193.1,67.0 L193.4,66.9 L193.7,66.9 L194.1,66.9
		L194.4,66.8 L194.7,66.8 L195.0,66.8 L195.3,66.8 L195.6,66.8 L195.9,66.7 L196.2,66.7 L196.4,66.7
		L196.7,66.7 L197.0,66.7 L197.3,66.7 L197.5,66.7 L197.8,66.7 L198.1,66.7 L198.3,66.7 L198.6,66.7
		L198.8,66.7 L199.1,66.7 L199.3,66.7 L199.6,66.7 L199.8,66.7 L200.1,66.7 L200.3,66.7 L200.5,66.8
		L200.8,66.8 L201.0,66.8 L201.2,66.8 L201.4,66.8 L201.7,66.8 L201.9,66.9 L202.1,66.9 L202.3,66.9
		L202.5,66.9 L202.7,66.9 L202.9,67.0 L203.1,67.0 L203.3,67.0 L203.5,67.1 L203.7,67.1 L203.9,67.1
		L204.1,67.1 L204.3,67.2 L204.5,67.2 L204.8,67.2 L205.0,67.3 L205.2,67.3 L205.4,67.3 L205.6,67.4
		L205.8,67.4 L206.0,67.5 L206.3,67.5 L206.5,67.6 L206.7,67.6 L206.9,67.7 L207.2,67.7 L207.4,67.8
		L207.7,67.8 L207.9,67.9 L208.1,67.9 L208.4,68.0 L208.6,68.1 L208.9,68.1 L209.2,68.2 L209.4,68.3
		L209.7,68.4 L210.0,68.4 L210.2,68.5 L210.5,68.6 L210.8,68.7 L211.1,68.8 L211.3,68.9 L211.6,69.0
		L211.9,69.1 L212.2,69.2 L212.5,69.3 L212.8,69.4 L213.1,69.5 L213.5,69.6 L213.8,69.7 L214.1,69.9
		L214.4,70.0 L214.8,70.1 L215.1,70.3 L215.4,70.4 L215.8,70.6 L216.1,70.7 L216.5,70.9 L216.9,71.1
		L217.2,71.3 L217.6,71.4 L218.0,71.6 L218.4,71.8 L218.8,72.0 L219.2,72.2 L219.6,72.4 L220.0,72.7
		L220.4,72.9 L220.9,73.1 L221.3,73.4 L221.7,73.6 L222.2,73.9 L222.6,74.2 L223.1,74.5 L223.6,74.8
		L224.1,75.1 L224.6,75.4 L225.1,75.7 L225.6,76.1 L226.1,76.4 L226.7,76.8 L227.2,77.2 L227.8,77.6
		L228.3,78.0 L228.9,78.5 L229.5,78.9 L230.1,79.4 L230.7,79.9 L231.4,80.4 L232.0,80.9 L232.7,81.5
		L233.4,82.1 L234.1,82.7 L234.8,83.3 L235.5,83.9 L236.2,84.6 L237.0,85.3 L237.8,86.1 L238.6,86.9
		L239.4,87.7 L240.3,88.5 L241.2,89.4 L242.1,90.4 L243.0,91.4 L244.0,92.4 L245.0,93.5 L246.0,94.6
		L247.1,95.8 L248.2,97.1 L249.3,98.4 L250.5,99.8 L251.7,101.3 L253.0,102.9 L254.3,104.5 L255.7,106.3
		L257.1,108.1 L258.7,110.1 L260.2,112.2 L261.9,114.5 L263.6,116.9 L265.5,119.4 L267.4,122.2 L269.5,125.1
		L271.7,128.3 L274.1,131.7 L276.6,135.3 L279.1,138.9 L281.6,142.5 L284.0,146.0 L286.5,149.5 L289.0,153.0
		L291.7,156.5 L294.4,160.1 L297.4,163.8 L300.8,167.7 L305.0,172.0 L311.0,176.8 L318.1,180.2 L326.3,180.5
		L335.1,176.6 L341.8,171.3 L346.2,166.9 L349.9,162.8 L353.3,158.9 L356.4,155.0 L359.5,151.2 L362.6,147.3
		L365.7,143.4 L368.8,139.3 L372.1,135.2 L375.6,130.9 L379.4,126.3 L383.6,121.5 L388.4,116.2 L394.4,110.3
		L402.5,103.3 L412.5,96.9 L422.9,92.8 L434.1,91.7 L446.4,94.5 L459.4,102.3 L467.1,109.1 L472.3,114.7
		L476.4,119.6 L479.8,124.0 L482.8,128.0 L485.4,131.8 L487.8,135.3 L490.0,138.7 L492.0,141.9 L493.8,145.0
		L495.6,147.9 L497.2,150.8 L498.8,153.5 L500.2,156.2 L501.6,158.7 L503.0,161.2 L504.3,163.6 L505.5,166.0
		L506.7,168.3 L507.8,170.5 L508.9,172.7 L509.9,174.8 L511.0,176.8 L512.0,178.9 L512.9,180.8 L513.8,182.8
		L514.7,184.7 L515.6,186.5 L516.4,188.3 L517.3,190.1 L518.1,191.9 L518.8,193.6 L519.6,195.3 L520.3,196.9
		L521.0,198.5 L521.7,200.1 L522.4,201.7 L523.1,203.2 L523.7,204.7 L524.3,206.2 L524.9,207.6 L525.5,209.1
		L526.1,210.5 L526.7,211.8 L527.2,213.2 L527.8,214.5 L528.3,215.8 L528.8,217.1 L529.3,218.4 L529.8,219.6
		L530.3,220.9 L530.7,222.1 L531.2,223.2 L531.6,224.4 L532.0,225.6 L532.4,226.7 L532.8,227.8 L533.2,228.9
		L533.6,229.9 L534.0,231.0 L534.3,232.0 L534.7,233.0 L535.0,234.0 L535.3,235.0 L535.6,236.0 L535.9,236.9
		L536.2,237.8 L536.5,238.7 L536.8,239.6 L537.0,240.5 L537.3,241.4 L537.5,242.2 L537.7,243.0 L537.9,243.8
		L538.1,244.6 L538.3,245.4 L538.5,246.2 L538.7,246.9 L538.9,247.6 L539.0,248.3 L539.2,249.0 L539.3,249.7
		L539.5,250.4 L539.6,251.0 L539.7,251.7 L539.9,252.3 L540.0,252.9 L540.1,253.5 L540.2,254.1 L540.2,254.7
		L540.3,255.2 L540.4,255.8 L540.5,256.3 L540.5,256.8 L540.6,257.3 L540.6,257.8 L540.7,258.3 L540.7,258.7
		L540.8,259.2 L540.8,259.6 L540.8,260.1 L540.9,260.5 L540.9,260.9 L540.9,261.3 L540.9,261.7 L541.0,262.1
		L541.0,262.5 L541.0,262.8 L541.0,263.2 L541.0,263.5 L541.0,263.9 L541.0,264.2 L541.0,264.5 L541.0,264.8
		L541.0,265.2 L541.0,265.5 L541.0,265.9 L541.0,266.2 L541.0,266.6 L541.0,267.0 L540.9,267.4 L540.9,267.8
		L540.9,268.2 L540.9,268.6 L540.8,269.0 L540.8,269.5 L540.8,269.9 L540.7,270.4 L540.7,270.9 L540.6,271.3
		L540.6,271.9 L540.5,272.4 L540.4,272.9 L540.4,273.5 L540.3,274.0 L540.2,274.6 L540.1,275.2 L540.0,275.8
		L539.9,276.4 L539.8,277.1 L539.6,277.7 L539.5,278.4 L539.3,279.1 L539.2,279.8 L539.0,280.6 L538.8,281.3
		L538.6,282.1 L538.4,282.9 L538.2,283.7 L538.0,284.5 L537.8,285.4 L537.5,286.2 L537.2,287.1 L537.0,288.0
		L536.7,289.0 L536.4,289.9 L536.1,290.9 L535.7,291.9 L535.4,292.9 L535.0,293.9 L534.6,295.0 L534.3,296.1
		L533.9,297.1 L533.4,298.3 L533.0,299.4 L532.6,300.6 L532.1,301.8 L531.6,303.0 L531.1,304.2 L530.6,305.5
		L530.1,306.7 L529.6,308.0 L529.0,309.4 L528.4,310.7 L527.8,312.1 L527.2,313.5 L526.6,314.9 L526.0,316.4
		L525.3,317.9 L524.6,319.4 L523.9,321.0 L523.2,322.6 L522.4,324.2 L521.7,325.8 L520.9,327.5 L520.0,329.2
		L519.2,331.0 L518.3,332.7 L517.4,334.6 L516.5,336.4 L515.5,338.4 L514.5,340.3 L513.5,342.3 L512.4,344.4
		L511.3,346.5 L510.2,348.7 L509.0,350.9 L507.7,353.2 L506.4,355.5 L505.0,358.0 L503.6,360.5 L502.0,363.1
		L500.4,365.8 L498.7,368.6 L496.8,371.5 L494.9,374.6 L492.7,377.8 L490.3,381.2 L487.7,384.8 L484.8,388.7
		L481.3,392.9 L477.1,397.6 L471.6,403.1 L462.8,410.1 L447.4,416.7 L433.5,416.2 L420.7,410.3 L412.3,403.4
		L407.2,398.2 L403.5,393.7 L400.4,389.7 L397.8,386.0 L395.6,382.7 L393.5,379.5 L391.7,376.6 L390.1,373.8
		L388.6,371.1 L387.2,368.5 L385.9,366.1 L384.7,363.8 L383.6,361.5 L382.5,359.4 L381.5,357.3 L380.6,355.3
		L379.7,353.3 L378.8,351.5 L378.0,349.6 L377.3,347.9 L376.5,346.2 L375.8,344.5 L375.2,342.9 L374.5,341.3
		L373.9,339.7 L373.3,338.3 L372.8,336.8 L372.3,335.4 L371.7,334.0 L371.3,332.7 L370.8,331.3 L370.3,330.1
		L369.9,328.8 L369.5,327.6 L369.1,326.4 L368.7,325.2 L368.3,324.1 L368.0,323.0 L367.6,321.9 L367.3,320.8
		L367.0,319.8 L366.7,318.7 L366.4,317.7 L366.1,316.8 L365.8,315.8 L365.5,314.9 L365.3,313.9 L365.0,313.0
		L364.8,312.2 L364.6,311.3 L364.3,310.5 L364.1,309.6 L363.9,308.8 L363.7,308.0 L363.5,307.2 L363.3,306.5
		L363.2,305.7 L363.0,305.0 L362.8,304.3 L362.7,303.6 L362.5,302.9 L362.3,302.2 L362.2,301.5 L362.1,300.9
		L361.9,300.2 L361.8,299.6 L361.7,299.0 L361.5,298.3 L361.4,297.7 L361.3,297.2 L361.2,296.6 L361.1,296.0
		L361.0,295.5 L360.9,294.9 L360.8,294.4 L360.7,293.8 L360.6,293.3 L360.5,292.8 L360.4,292.3 L360.3,291.8
		L360.3,291.3 L360.2,290.8 L360.1,290.4 L360.0,289.9 L360.0,289.4 L359.9,289.0 L359.8,288.6 L359.8,288.1
		L359.7,287.7 L359.7,287.3 L359.6,286.9 L359.5,286.5 L359.5,286.0 L359.4,285.7 L359.4,285.3 L359.3,284.9
		L359.3,284.5 L359.2,284.1 L359.2,283.8 L359.2,283.4 L359.1,283.1 L359.1,282.7 L359.0,282.4 L359.0,282.0
		L359.0,281.7 L358.9,281.4 L358.9,281.0 L358.9,280.7 L358.8,280.4 L358.8,280.1 L358.8,279.8 L358.7,279.5
		L358.7,279.2 L358.7,278.9 L358.7,278.6 L358.6,278.3 L358.6,278.0 L358.6,277.7 L358.6,277.5 L358.5,277.2
		L358.5,276.9 L358.5,276.6 L358.5,276.4 L358.5,276.1 L358.4,275.9 L358.4,275.6 L358.4,275.4 L358.4,275.1
		L358.4,274.9 L358.4,274.6 L358.3,274.4 L358.3,274.2 L358.3,274.0 L358.3,273.7 L358.3,273.5 L358.3,273.3
		L358.3,273.1 L358.3,272.8 L358.2,272.6 L358.2,272.4 L358.2,272.2 L358.2,272.0 L358.2,271.8 L358.2,271.6
		L358.2,271.4 L358.2,271.2 L358.2,271.0 L358.2,270.8 L358.1,270.6 L358.1,270.4 L358.1,270.2 L358.1,270.1
		L358.1,269.9 L358.1,269.7 L358.1,269.5 L358.1,269.3 L358.1,269.2 L358.1,269.0 L358.1,268.8 L358.1,268.7
		L358.1,268.5 L358.1,268.3 L358.1,268.2 L358.1,268.0 L358.1,267.9 L358.1,267.7 L358.1,267.5 L358.1,267.4
		L358.1,267.2 L358.1,267.1 L358.1,266.9 L358.0,266.8 L358.0,266.6 L358.0,266.5 L358.0,266.3 L358.0,266.2
		L358.0,266.1 L358.0,265.9 L358.0,265.8 L358.0,265.6 L358.0,265.5 L358.0,265.4 L358.0,265.2 L358.0,265.1
		L358.0,265.0 L358.0,264.8 L358.0,264.7 L358.0,264.6 L358.0,264.5 L358.0,264.3 L358.0,264.2 L358.0,264.1
		L358.0,264.0 L358.0,263.8 L358.0,263.7 L358.0,263.6 L358.0,263.4 L358.0,263.3 L358.0,263.1 L358.0,263.0
		L358.0,262.9 L358.0,262.7 L358.0,262.6 L358.0,262.4 L358.0,262.3 L358.1,262.1 L358.1,262.0 L358.1,261.8
		L358.1,261.7 L358.1,261.5 L358.1,261.3 L358.1,261.2 L358.1,261.0 L358.1,260.9 L358.1,260.7 L358.1,260.5
		L358.1,260.4 L358.1,260.2 L358.1,260.0 L358.1,259.8 L358.1,259.7 L358.1,259.5 L358.1,259.3 L358.1,259.1
		L358.1,258.9 L358.1,258.8 L358.1,258.6 L358.2,258.4 L358.2,258.2 L358.2,258.0 L358.2,257.8 L358.2,257.6
		L358.2,257.4 L358.2,257.2 L358.2,257.0 L358.2,256.8 L358.2,256.5 L358.3,256.3 L358.3,256.1 L358.3,255.9
		L358.3,255.7 L358.3,255.4 L358.3,255.2 L358.3,255.0 L358.3,254.7 L358.4,254.5 L358.4,254.3 L358.4,254.0
		L358.4,253.8 L358.4,253.5 L358.4,253.2 L358.5,253.0 L358.5,252.7 L358.5,252.5 L358.5,252.2 L358.5,251.9
		L358.6,251.6 L358.6,251.4 L358.6,251.1 L358.6,250.8 L358.7,250.5 L358.7,250.2 L358.7,249.9 L358.8,249.6
		L358.8,249.3 L358.8,248.9 L358.9,248.6 L358.9,248.3 L358.9,248.0 L359.0,247.6 L359.0,247.3 L359.0,246.9
		L359.1,246.6 L359.1,246.2 L359.2,245.9 L359.2,245.5 L359.3,245.1 L359.3,244.7 L359.4,244.3 L359.4,243.9
		L359.5,243.5 L359.5,243.1 L359.6,242.7 L359.6,242.3 L359.7,241.9 L359.8,241.4 L359.8,241.0 L359.9,240.5
		L360.0,240.1 L360.0,239.6 L360.1,239.1 L360.2,238.6 L360.3,238.1 L360.4,237.6 L360.5,237.1 L360.5,236.6
		L360.6,236.1 L360.7,235.5 L360.8,235.0 L360.9,234.4 L361.1,233.8 L361.2,233.2 L361.3,232.6 L361.4,232.0
		L361.5,231.4 L361.7,230.8 L361.8,230.1 L362.0,229.5 L362.1,228.8 L362.3,228.1 L362.4,227.4 L362.6,226.7
		L362.8,226.0 L362.9,225.2 L363.1,224.5 L363.3,223.7 L363.5,222.9 L363.7,222.1 L364.0,221.2 L364.2,220.4
		L364.4,219.5 L364.7,218.6 L364.9,217.7 L365.2,216.8 L365.5,215.8 L365.8,214.8 L366.1,213.8 L366.4,212.8
		L366.7,211.8 L367.1,210.7 L367.4,209.6 L367.8,208.4 L368.2,207.3 L368.6,206.1 L369.1,204.9 L369.5,203.6
		L370.0,202.3 L370.5,201.0 L371.0,199.6 L371.5,198.2 L372.1,196.8 L372.7,195.3 L373.3,193.8 L374.0,192.2
		L374.7,190.6 L375.4,188.9 L376.2,187.1 L377.0,185.3 L377.9,183.5 L378.8,181.5 L379.8,179.5 L380.9,177.4
		L382.0,175.3 L383.2,173.0 L384.5,170.6 L386.0,168.1 L387.5,165.5 L389.2,162.7 L391.2,159.7 L393.4,156.5
		L395.9,153.1 L398.9,149.2 L402.6,144.9 L407.8,139.8 L417.3,132.9 L431.2,128.5 L446.7,131.8 L457.2,139.1
		L462.4,144.2 L466.0,148.5 L468.8,152.2 L471.2,155.6 L473.2,158.6 L475.0,161.5 L476.6,164.2 L478.0,166.7
		L479.3,169.1 L480.5,171.4 L481.6,173.5 L482.6,175.6 L483.5,177.6 L484.4,179.5 L485.2,181.3 L486.0,183.1
		L486.7,184.8 L487.4,186.5 L488.1,188.1 L488.7,189.6 L489.3,191.1 L489.8,192.6 L490.3,194.0 L490.8,195.3
		L491.3,196.7 L491.8,197.9 L492.2,199.2 L492.6,200.4 L493.0,201.6 L493.4,202.8 L493.8,203.9 L494.1,205.0
		L494.4,206.1 L494.7,207.1 L495.1,208.1 L495.3,209.1 L495.6,210.1 L495.9,211.1 L496.2,212.0 L496.4,212.9
		L496.6,213.8 L496.9,214.7 L497.1,215.5 L497.3,216.4 L497.5,217.2 L497.7,218.0 L497.9,218.8 L498.1,219.5
		L498.3,220.3 L498.4,221.0 L498.6,221.8 L498.8,222.5 L498.9,223.2 L499.1,223.8 L499.2,224.5 L499.4,225.2
		L499.5,225.8 L499.6,226.4 L499.7,227.1 L499.9,227.7 L500.0,228.3 L500.1,228.9 L500.2,229.4 L500.3,230.0
		L500.4,230.6 L500.5,231.1 L500.6,231.6 L500.7,232.2 L500.8,232.7 L500.9,233.2 L501.0,233.7 L501.1,234.2
		L501.1,234.7 L501.2,235.2 L501.3,235.6 L501.4,236.1 L501.4,236.6 L501.5,237.0 L501.6,237.4 L501.6,237.9
		L501.7,238.3 L501.7,238.7 L501.8,239.1 L501.9,239.5 L501.9,239.9 L502.0,240.3 L502.0,240.7 L502.1,241.1
		L502.1,241.5 L502.2,241.9 L502.2,242.2 L502.2,242.6 L502.3,243.0 L502.3,243.3 L502.4,243.7 L502.4,244.0
		L502.4,244.3 L502.5,244.7 L502.5,245.0 L502.6,245.3 L502.6,245.6 L502.6,245.9 L502.6,246.3 L502.7,246.6
		L502.7,246.9 L502.7,247.2 L502.8,247.5 L502.8,247.8 L502.8,248.0 L502.8,248.3 L502.9,248.6 L502.9,248.9
		L502.9,249.2 L502.9,249.4 L503.0,249.7 L503.0,249.9 L503.0,250.2 L503.0,250.5 L503.0,250.7 L503.1,251.0
		L503.1,251.2 L503.1,251.5 L503.1,251.7 L503.1,251.9 L503.1,252.2 L503.2,252.4 L503.2,252.6 L503.2,252.9
		L503.2,253.1 L503.2,253.3 L503.2,253.5 L503.3,253.7 L503.3,254.0 L503.3,254.2 L503.3,254.4 L503.3,254.6
		L503.3,254.8 L503.3,255.0 L503.3,255.2 L503.3,255.4 L503.4,255.6 L503.4,255.8 L503.4,256.0 L503.4,256.2
		L503.4,256.4 L503.4,256.5 L503.4,256.7 L503.4,256.9 L503.4,257.1 L503.4,257.3 L503.4,257.4 L503.4,257.6
		L503.4,257.8 L503.5,258.0 L503.5,258.1 L503.5,258.3 L503.5,258.5 L503.5,258.6 L503.5,258.8 L503.5,259.0
		L503.5,259.1 L503.5,259.3 L503.5,259.4 L503.5,259.6 L503.5,259.7 L503.5,259.9 L503.5,260.0 L503.5,260.2
		L503.5,260.3 L503.5,260.5 L503.5,260.6 L503.5,260.8 L503.5,260.9 L503.5,261.1 L503.5,261.2 L503.5,261.3
		L503.5,261.5 L503.6,261.6 L503.6,261.7 L503.6,261.9 L503.6,262.0 L503.6,262.1 L503.6,262.3 L503.6,262.4
		L503.6,262.5 L503.6,262.6 L503.6,262.8 L503.6,262.9 L503.6,263.0 L503.6,263.1 L503.6,263.3 L503.6,263.4
		L503.6,263.5 L503.6,263.6 L503.6,263.7 L503.6,263.8 L503.6,264.0 L503.6,264.1 L503.6,264.2 L503.6,264.3
		L503.6,264.4 L503.6,264.5 L503.6,264.6 L503.6,264.7 L503.6,264.9 L503.6,265.0 L503.6,265.1 L503.6,265.2
		L503.6,265.3 L503.6,265.4 L503.6,265.5 L503.6,265.7 L503.6,265.8 L503.6,265.9 L503.6,266.0 L503.6,266.1
		L503.6,266.3 L503.6,266.4 L503.6,266.5 L503.6,266.6 L503.6,266.8 L503.6,266.9 L503.6,267.0 L503.6,267.2
		L503.6,267.3 L503.6,267.4 L503.6,267.6 L503.5,267.7 L503.5,267.8 L503.5,268.0 L503.5,268.1 L503.5,268.3
		L503.5,268.4 L503.5,268.6 L503.5,268.7 L503.5,268.9 L503.5,269.0 L503.5,269.2 L503.5,269.3 L503.5,269.5
		L503.5,269.6 L503.5,269.8 L503.5,269.9 L503.5,270.1 L503.5,270.3 L503.5,270.4 L503.5,270.6 L503.5,270.7
		L503.5,270.9 L503.5,271.1 L503.4,271.3 L503.4,271.4 L503.4,271.6 L503.4,271.8 L503.4,272.0 L503.4,272.1
		L503.4,272.3 L503.4,272.5 L503.4,272.7 L503.4,272.9 L503.4,273.1 L503.4,273.3 L503.4,273.5 L503.3,273.7
		L503.3,273.9 L503.3,274.1 L503.3,274.3 L503.3,274.5 L503.3,274.7 L503.3,274.9 L503.3,275.1 L503.2,275.4
		L503.2,275.6 L503.2,275.8 L503.2,276.0 L503.2,276.2 L503.2,276.5 L503.2,276.7 L503.1,277.0 L503.1,277.2
		L503.1,277.4 L503.1,277.7 L503.1,277.9 L503.1,278.2 L503.0,278.4 L503.0,278.7 L503.0,279.0 L503.0,279.2
		L502.9,279.5 L502.9,279.8 L502.9,280.0 L502.9,280.3 L502.8,280.6 L502.8,280.9 L502.8,281.2 L502.8,281.5
		L502.7,281.8 L502.7,282.1 L502.7,282.4 L502.6,282.7 L502.6,283.0 L502.6,283.4 L502.5,283.7 L502.5,284.0
		L502.5,284.3 L502.4,284.7 L502.4,285.0 L502.3,285.4 L502.3,285.7 L502.3,286.1 L502.2,286.5 L502.2,286.9
		L502.1,287.2 L502.1,287.6 L502.0,288.0 L502.0,288.4 L501.9,288.8 L501.9,289.2 L501.8,289.6 L501.7,290.1
		L501.7,290.5 L501.6,290.9 L501.5,291.4 L501.5,291.8 L501.4,292.3 L501.3,292.8 L501.2,293.3 L501.2,293.8
		L501.1,294.2 L501.0,294.8 L500.9,295.3 L500.8,295.8 L500.7,296.3 L500.6,296.9 L500.5,297.4 L500.4,298.0
		L500.3,298.6 L500.2,299.2 L500.1,299.8 L499.9,300.4 L499.8,301.0 L499.7,301.6 L499.5,302.3 L499.4,302.9
		L499.3,303.6 L499.1,304.3 L498.9,305.0 L498.8,305.7 L498.6,306.5 L498.4,307.2 L498.2,308.0 L498.0,308.8
		L497.8,309.6 L497.6,310.4 L497.4,311.3 L497.2,312.1 L496.9,313.0 L496.7,313.9 L496.4,314.8 L496.1,315.8
		L495.8,316.8 L495.5,317.8 L495.2,318.8 L494.9,319.9 L494.5,321.0 L494.2,322.1 L493.8,323.2 L493.4,324.4
		L493.0,325.6 L492.5,326.9 L492.1,328.2 L491.6,329.5 L491.0,330.9 L490.5,332.3 L489.9,333.8 L489.2,335.4
		L488.6,336.9 L487.9,338.6 L487.1,340.3 L486.3,342.1 L485.4,344.0 L484.4,345.9 L483.4,348.0 L482.3,350.1
		L481.0,352.4 L479.6,354.8 L478.1,357.4 L476.3,360.2 L474.3,363.2 L471.9,366.4 L468.9,370.2 L464.9,374.5
		L458.3,380.1 L442.0,386.4 L425.5,381.8 L417.7,375.7 L413.5,371.2 L410.4,367.5 L408.0,364.2 L406.0,361.2
		L404.3,358.4 L402.8,355.9 L401.4,353.5 L400.2,351.3 L399.1,349.1 L398.1,347.1 L397.2,345.2 L396.4,343.4
		L395.6,341.6 L394.9,339.9 L394.2,338.3 L393.5,336.7 L392.9,335.2 L392.4,333.8 L391.9,332.4 L391.3,331.0
		L390.9,329.7 L390.4,328.4 L390.0,327.2 L389.6,326.0 L389.2,324.8 L388.8,323.7 L388.5,322.6 L388.2,321.5
		L387.8,320.5 L387.5,319.5 L387.2,318.5 L387.0,317.5 L386.7,316.6 L386.4,315.6 L386.2,314.7 L386.0,313.9
		L385.7,313.0 L385.5,312.2 L385.3,311.4 L385.1,310.6 L384.9,309.8 L384.7,309.0 L384.6,308.3 L384.4,307.5
		L384.2,306.8 L384.1,306.1 L383.9,305.4 L383.8,304.7 L383.6,304.1 L383.5,303.4 L383.4,302.8 L383.2,302.2
		L383.1,301.6 L383.0,301.0 L382.9,300.4 L382.8,299.8 L382.7,299.2 L382.6,298.7 L382.5,298.1 L382.4,297.6
		L382.3,297.1 L382.2,296.5 L382.1,296.0 L382.0,295.5 L381.9,295.0 L381.9,294.6 L381.8,294.1 L381.7,293.6
		L381.6,293.2 L381.6,292.7 L381.5,292.3 L381.4,291.8 L381.4,291.4 L381.3,291.0 L381.3,290.5 L381.2,290.1
		L381.2,289.7 L381.1,289.3 L381.0,288.9 L381.0,288.6 L380.9,288.2 L380.9,287.8 L380.9,287.4 L380.8,287.1
		L380.8,286.7 L380.7,286.3 L380.7,286.0 L380.6,285.7 L380.6,285.3 L380.6,285.0 L380.5,284.7 L380.5,284.3
		L380.5,284.0 L380.4,283.7 L380.4,283.4 L380.4,283.1 L380.3,282.8 L380.3,282.5 L380.3,282.2 L380.3,281.9
		L380.2,281.6 L380.2,281.3 L380.2,281.0 L380.1,280.7 L380.1,280.5 L380.1,280.2 L380.1,279.9 L380.1,279.7
		L380.0,279.4 L380.0,279.2 L380.0,278.9 L380.0,278.7 L380.0,278.4 L379.9,278.2 L379.9,277.9 L379.9,277.7
		L379.9,277.4 L379.9,277.2 L379.9,277.0 L379.8,276.7 L379.8,276.5 L379.8,276.3 L379.8,276.1 L379.8,275.9
		L379.8,275.6 L379.8,275.4 L379.7,275.2 L379.7,275.0 L379.7,274.8 L379.7,274.6 L379.7,274.4 L379.7,274.2
		L379.7,274.0 L379.7,273.8 L379.7,273.6 L379.7,273.4 L379.6,273.2 L379.6,273.1 L379.6,272.9 L379.6,272.7
		L379.6,272.5 L379.6,272.3 L379.6,272.2 L379.6,272.0 L379.6,271.8 L379.6,271.6 L379.6,271.5 L379.6,271.3
		L379.6,271.1 L379.5,271.0 L379.5,270.8 L379.5,270.6 L379.5,270.5 L379.5,270.3 L379.5,270.2 L379.5,270.0
		L379.5,269.8 L379.5,269.7 L379.5,269.5 L379.5,269.4 L379.5,269.2 L379.5,269.1 L379.5,269.0 L379.5,268.8
		L379.5,268.7 L379.5,268.5 L379.5,268.4 L379.5,268.2 L379.5,268.1 L379.5,268.0 L379.5,267.8 L379.5,267.7
		L379.5,267.6 L379.5,267.4 L379.5,267.3 L379.5,267.2 L379.5,267.0 L379.5,266.9 L379.5,266.8 L379.5,266.7
		L379.4,266.5 L379.4,266.4 L379.4,266.3 L379.4,266.2 L379.4,266.1 L379.4,265.9 L379.4,265.8 L379.4,265.7
		L379.4,265.6 L379.4,265.5 L379.4,265.4 L379.4,265.2 L379.4,265.1 L379.4,265.0 L379.4,264.9 L379.4,264.8
		L379.4,264.7 L379.4,264.6 L379.4,264.5 L379.4,264.4 L379.4,264.3 L379.4,264.2 L379.4,264.0 L379.4,263.9
		L379.4,263.8 L379.4,263.7 L379.4,263.6 L379.4,263.5 L379.4,263.4 L379.4,263.2 L379.4,263.1 L379.4,263.0
		L379.4,262.9 L379.4,262.8 L379.4,262.6 L379.4,262.5 L379.5,262.4 L379.5,262.3 L379.5,262.1 L379.5,262.0
		L379.5,261.9 L379.5,261.8 L379.5,261.6 L379.5,261.5 L379.5,261.4 L379.5,261.2 L379.5,261.1 L379.5,260.9
		L379.5,260.8 L379.5,260.7 L379.5,260.5 L379.5,260.4 L379.5,260.2 L379.5,260.1 L379.5,259.9 L379.5,259.8
		L379.5,259.6 L379.5,259.5 L379.5,259.3 L379.5,259.2 L379.5,259.0 L379.5,258.9 L379.5,258.7 L379.5,258.6
		L379.5,258.4 L379.5,258.2 L379.6,258.1 L379.6,257.9 L379.6,257.7 L379.6,257.6 L379.6,257.4 L379.6,257.2
		L379.6,257.0 L379.6,256.8 L379.6,256.7 L379.6,256.5 L379.6,256.3 L379.6,256.1 L379.6,255.9 L379.7,255.7
		L379.7,255.5 L379.7,255.3 L379.7,255.1 L379.7,254.9 L379.7,254.7 L379.7,254.5 L379.7,254.3 L379.7,254.1
		L379.7,253.9 L379.8,253.7 L379.8,253.5 L379.8,253.3 L379.8,253.0 L379.8,252.8 L379.8,252.6 L379.8,252.4
		L379.9,252.1 L379.9,251.9 L379.9,251.7 L379.9,251.4 L379.9,251.2 L379.9,250.9 L380.0,250.7 L380.0,250.4
		L380.0,250.2 L380.0,249.9 L380.1,249.6 L380.1,249.4 L380.1,249.1 L380.1,248.8 L380.1,248.6 L380.2,248.3
		L380.2,248.0 L380.2,247.7 L380.3,247.4 L380.3,247.1 L380.3,246.8 L380.3,246.5 L380.4,246.2 L380.4,245.9
		L380.4,245.6 L380.5,245.2 L380.5,244.9 L380.5,244.6 L380.6,244.2 L380.6,243.9 L380.7,243.5 L380.7,243.2
		L380.7,242.8 L380.8,242.5 L380.8,242.1 L380.9,241.7 L380.9,241.3 L381.0,240.9 L381.0,240.5 L381.1,240.1
		L381.1,239.7 L381.2,239.3 L381.3,238.9 L381.3,238.5 L381.4,238.0 L381.5,237.6 L381.5,237.1 L381.6,236.7
		L381.7,236.2 L381.8,235.7 L381.8,235.2 L381.9,234.7 L382.0,234.2 L382.1,233.7 L382.2,233.2 L382.3,232.7
		L382.4,232.1 L382.5,231.6 L382.6,231.0 L382.7,230.4 L382.8,229.8 L382.9,229.2 L383.0,228.6 L383.2,228.0
		L383.3,227.4 L383.4,226.7 L383.6,226.0 L383.7,225.4 L383.9,224.7 L384.1,223.9 L384.2,223.2 L384.4,222.5
		L384.6,221.7 L384.8,220.9 L385.0,220.1 L385.2,219.3 L385.4,218.5 L385.7,217.6 L385.9,216.7 L386.2,215.8
		L386.4,214.9 L386.7,213.9 L387.0,212.9 L387.3,211.9 L387.6,210.8 L388.0,209.8 L388.4,208.7 L388.7,207.5
		L389.1,206.3 L389.6,205.1 L390.0,203.8 L390.5,202.5 L391.0,201.2 L391.6,199.8 L392.2,198.3 L392.8,196.8
		L393.5,195.2 L394.2,193.5 L395.0,191.8 L395.9,189.9 L396.9,188.0 L397.9,186.0 L399.1,183.8 L400.5,181.5
		L402.0,179.0 L403.8,176.3 L405.9,173.3 L408.5,169.9 L412.1,165.9 L418.1,160.7 L433.8,155.1 L450.0,161.1
		L455.7,166.1 L459.1,170.0 L461.7,173.3 L463.7,176.3 L465.4,178.9 L466.9,181.4 L468.2,183.7 L469.3,185.8
		L470.3,187.8 L471.3,189.7 L472.1,191.5 L472.9,193.2 L473.6,194.9 L474.3,196.4 L474.9,197.9 L475.5,199.4
		L476.0,200.8 L476.5,202.1 L477.0,203.4 L477.4,204.7 L477.8,205.9 L478.2,207.0 L478.6,208.2 L479.0,209.3
		L479.3,210.3 L479.6,211.4 L479.9,212.4 L480.2,213.4 L480.5,214.3 L480.8,215.3 L481.0,216.2 L481.2,217.0
		L481.5,217.9 L481.7,218.7 L481.9,219.6 L482.1,220.4 L482.3,221.1 L482.5,221.9 L482.7,222.7 L482.8,223.4
		L483.0,224.1 L483.1,224.8 L483.3,225.5 L483.4,226.1 L483.6,226.8 L483.7,227.4 L483.8,228.1 L484.0,228.7
		L484.1,229.3 L484.2,229.9 L484.3,230.4 L484.4,231.0 L484.5,231.6 L484.6,232.1 L484.7,232.7 L484.8,233.2
		L484.9,233.7 L485.0,234.2 L485.1,234.7 L485.2,235.2 L485.2,235.7 L485.3,236.1 L485.4,236.6 L485.4,237.1
		L485.5,237.5 L485.6,238.0 L485.6,238.4 L485.7,238.8 L485.8,239.2 L485.8,239.7 L485.9,240.1 L485.9,240.5
		L486.0,240.9 L486.0,241.2 L486.1,241.6 L486.1,242.0 L486.2,242.4 L486.2,242.7 L486.3,243.1 L486.3,243.4
		L486.3,243.8 L486.4,244.1 L486.4,244.5 L486.5,244.8 L486.5,245.1 L486.5,245.5 L486.6,245.8 L486.6,246.1
		L486.6,246.4 L486.7,246.7 L486.7,247.0 L486.7,247.3 L486.7,247.6 L486.8,247.9 L486.8,248.2 L486.8,248.5
		L486.8,248.8 L486.9,249.0 L486.9,249.3 L486.9,249.6 L486.9,249.8 L487.0,250.1 L487.0,250.4 L487.0,250.6
		L487.0,250.9 L487.0,251.1 L487.1,251.4 L487.1,251.6 L487.1,251.8 L487.1,252.1 L487.1,252.3 L487.1,252.5
		L487.2,252.8 L487.2,253.0 L487.2,253.2 L487.2,253.4 L487.2,253.7 L487.2,253.9 L487.2,254.1 L487.2,254.3
		L487.3,254.5 L487.3,254.7 L487.3,254.9 L487.3,255.1 L487.3,255.3 L487.3,255.5 L487.3,255.7 L487.3,255.9
		L487.3,256.1 L487.4,256.3 L487.4,256.5 L487.4,256.7 L487.4,256.8 L487.4,257.0 L487.4,257.2 L487.4,257.4
		L487.4,257.6 L487.4,257.7 L487.4,257.9 L487.4,258.1 L487.4,258.2 L487.4,258.4 L487.4,258.6 L487.4,258.7
		L487.5,258.9 L487.5,259.0 L487.5,259.2 L487.5,259.4 L487.5,259.5 L487.5,259.7 L487.5,259.8 L487.5,260.0
		L487.5,260.1 L487.5,260.3 L487.5,260.4 L487.5,260.6 L487.5,260.7 L487.5,260.9 L487.5,261.0 L487.5,261.1
		L487.5,261.3 L487.5,261.4 L487.5,261.5 L487.5,261.7 L487.5,261.8 L487.5,261.9 L487.5,262.1 L487.5,262.2
		L487.5,262.3 L487.5,262.5 L487.5,262.6 L487.5,262.7 L487.5,262.8 L487.5,263.0 L487.5,263.1 L487.5,263.2
		L487.5,263.3 L487.5,263.4 L487.5,263.6 L487.5,263.7 L487.5,263.8 L487.5,263.9 L487.5,264.0 L487.5,264.1
		L487.5,264.2 L487.5,264.4 L487.5,264.5 L487.5,264.6 L487.5,264.7 L487.5,264.8 L487.5,264.9 L487.5,265.0
		L487.5,265.1 L487.5,265.3 L487.5,265.4 L487.5,265.5 L487.5,265.6 L487.5,265.7 L487.5,265.8 L487.5,266.0
		L487.5,266.1 L487.5,266.2 L487.5,266.3 L487.5,266.5 L487.5,266.6 L487.5,266.7 L487.5,266.8 L487.5,267.0
		L487.5,267.1 L487.5,267.2 L487.5,267.4 L487.5,267.5 L487.5,267.6 L487.5,267.8 L487.5,267.9 L487.5,268.1
		L487.5,268.2 L487.5,268.3 L487.5,268.5 L487.5,268.6 L487.5,268.8 L487.5,268.9 L487.5,269.1 L487.5,269.2
		L487.5,269.4 L487.5,269.5 L487.5,269.7 L487.5,269.8 L487.5,270.0 L487.5,270.2 L487.4,270.3 L487.4,270.5
		L487.4,270.7 L487.4,270.8 L487.4,271.0 L487.4,271.2 L487.4,271.3 L487.4,271.5 L487.4,271.7 L487.4,271.9
		L487.4,272.0 L487.4,272.2 L487.4,272.4 L487.4,272.6 L487.4,272.8 L487.3,273.0 L487.3,273.2 L487.3,273.4
		L487.3,273.6 L487.3,273.8 L487.3,274.0 L487.3,274.2 L487.3,274.4 L487.3,274.6 L487.2,274.8 L487.2,275.0
		L487.2,275.2 L487.2,275.4 L487.2,275.7 L487.2,275.9 L487.2,276.1 L487.2,276.3 L487.1,276.6 L487.1,276.8
		L487.1,277.1 L487.1,277.3 L487.1,277.5 L487.0,277.8 L487.0,278.0 L487.0,278.3 L487.0,278.6 L487.0,278.8
		L486.9,279.1 L486.9,279.3 L486.9,279.6 L486.9,279.9 L486.9,280.2 L486.8,280.5 L486.8,280.7 L486.8,281.0
		L486.7,281.3 L486.7,281.6 L486.7,281.9 L486.7,282.2 L486.6,282.6 L486.6,282.9 L486.6,283.2 L486.5,283.5
		L486.5,283.9 L486.4,284.2 L486.4,284.5 L486.4,284.9 L486.3,285.2 L486.3,285.6 L486.2,286.0 L486.2,286.3
		L486.1,286.7 L486.1,287.1 L486.0,287.5 L486.0,287.9 L485.9,288.3 L485.9,288.7 L485.8,289.1 L485.8,289.6
		L485.7,290.0 L485.6,290.4 L485.6,290.9 L485.5,291.3 L485.4,291.8 L485.3,292.3 L485.3,292.7 L485.2,293.2
		L485.1,293.7 L485.0,294.2 L484.9,294.8 L484.8,295.3 L484.7,295.8 L484.6,296.4 L484.5,297.0 L484.4,297.5
		L484.3,298.1 L484.2,298.7 L484.1,299.3 L483.9,300.0 L483.8,300.6 L483.6,301.3 L483.5,301.9 L483.3,302.6
		L483.2,303.3 L483.0,304.0 L482.8,304.8 L482.7,305.5 L482.5,306.3 L482.3,307.1 L482.0,307.9 L481.8,308.8
		L481.6,309.6 L481.3,310.5 L481.1,311.4 L480.8,312.4 L480.5,313.4 L480.2,314.4 L479.9,315.4 L479.5,316.5
		L479.2,317.6 L478.8,318.7 L478.4,319.9 L477.9,321.1 L477.5,322.4 L477.0,323.7 L476.4,325.1 L475.8,326.5
		L475.2,328.0 L474.5,329.6 L473.8,331.3 L472.9,333.0 L472.0,334.9 L471.0,336.8 L469.8,338.9 L468.5,341.2
		L466.9,343.7 L465.0,346.4 L462.6,349.5 L459.4,353.2 L453.8,358.1 L435.6,362.5 L423.3,355.9 L419.0,351.7
		L416.2,348.3 L414.1,345.4 L412.3,342.7 L410.9,340.4 L409.6,338.2 L408.5,336.1 L407.6,334.2 L406.7,332.4
		L405.9,330.7 L405.2,329.1 L404.5,327.5 L403.9,326.1 L403.3,324.7 L402.8,323.3 L402.3,322.0 L401.9,320.8
		L401.4,319.6 L401.0,318.4 L400.7,317.3 L400.3,316.2 L400.0,315.1 L399.7,314.1 L399.4,313.1 L399.1,312.1
		L398.8,311.2 L398.5,310.3 L398.3,309.4 L398.1,308.6 L397.9,307.7 L397.6,306.9 L397.4,306.1 L397.2,305.4
		L397.1,304.6 L396.9,303.9 L396.7,303.1 L396.6,302.4 L396.4,301.8 L396.3,301.1 L396.1,300.4 L396.0,299.8
		L395.9,299.2 L395.7,298.5 L395.6,297.9 L395.5,297.4 L395.4,296.8 L395.3,296.2 L395.2,295.7 L395.1,295.1
		L395.0,294.6 L394.9,294.1 L394.8,293.5 L394.7,293.0 L394.6,292.6 L394.6,292.1 L394.5,291.6 L394.4,291.1
		L394.3,290.7 L394.3,290.2 L394.2,289.8 L394.1,289.3 L394.1,288.9 L394.0,288.5 L394.0,288.1 L393.9,287.7
		L393.9,287.3 L393.8,286.9 L393.7,286.5 L393.7,286.1 L393.7,285.7 L393.6,285.4 L393.6,285.0 L393.5,284.6
		L393.5,284.3 L393.4,284.0 L393.4,283.6 L393.4,283.3 L393.3,282.9 L393.3,282.6 L393.3,282.3 L393.2,282.0
		L393.2,281.7 L393.2,281.4 L393.1,281.1 L393.1,280.8 L393.1,280.5 L393.1,280.2 L393.0,279.9 L393.0,279.6
		L393.0,279.3 L393.0,279.0 L392.9,278.8 L392.9,278.5 L392.9,278.2 L392.9,278.0 L392.9,277.7 L392.8,277.5
		L392.8,277.2 L392.8,277.0 L392.8,276.7 L392.8,276.5 L392.7,276.2 L392.7,276.0 L392.7,275.8 L392.7,275.5
		L392.7,275.3 L392.7,275.1 L392.7,274.9 L392.6,274.6 L392.6,274.4 L392.6,274.2 L392.6,274.0 L392.6,273.8
		L392.6,273.6 L392.6,273.4 L392.6,273.2 L392.6,273.0 L392.5,272.8 L392.5,272.6 L392.5,272.4 L392.5,272.2
		L392.5,272.0 L392.5,271.8 L392.5,271.6 L392.5,271.5 L392.5,271.3 L392.5,271.1 L392.5,270.9 L392.5,270.8
		L392.5,270.6 L392.4,270.4 L392.4,270.2 L392.4,270.1 L392.4,269.9 L392.4,269.7 L392.4,269.6 L392.4,269.4
		L392.4,269.3 L392.4,269.1 L392.4,268.9 L392.4,268.8 L392.4,268.6 L392.4,268.5 L392.4,268.3 L392.4,268.2
		L392.4,268.0 L392.4,267.9 L392.4,267.8 L392.4,267.6 L392.4,267.5 L392.4,267.3 L392.4,267.2 L392.4,267.1
		L392.4,266.9 L392.4,266.8 L392.4,266.6 L392.4,266.5 L392.4,266.4 L392.4,266.3 L392.4,266.1 L392.4,266.0
		L392.4,265.9 L392.4,265.7 L392.3,265.6 L392.3,265.5 L392.3,265.4 L392.3,265.3 L392.3,265.1 L392.3,265.0
		L392.3,264.9 L392.3,264.8 L392.3,264.7 L392.3,264.5 L392.3,264.4 L392.3,264.3 L392.3,264.2 L392.3,264.1
		L392.3,264.0 L392.3,263.8 L392.3,263.7 L392.3,263.6 L392.3,263.5 L392.4,263.4 L392.4,263.2 L392.4,263.1
		L392.4,263.0 L392.4,262.8 L392.4,262.7 L392.4,262.6 L392.4,262.4 L392.4,262.3 L392.4,262.2 L392.4,262.0
		L392.4,261.9 L392.4,261.8 L392.4,261.6 L392.4,261.5 L392.4,261.3 L392.4,261.2 L392.4,261.0 L392.4,260.9
		L392.4,260.7 L392.4,260.6 L392.4,260.4 L392.4,260.3 L392.4,260.1 L392.4,260.0 L392.4,259.8 L392.4,259.7
		L392.4,259.5 L392.4,259.3 L392.4,259.2 L392.4,259.0 L392.4,258.8 L392.4,258.6 L392.5,258.5 L392.5,258.3
		L392.5,258.1 L392.5,257.9 L392.5,257.8 L392.5,257.6 L392.5,257.4 L392.5,257.2 L392.5,257.0 L392.5,256.8
		L392.5,256.6 L392.5,256.4 L392.6,256.2 L392.6,256.0 L392.6,255.8 L392.6,255.6 L392.6,255.4 L392.6,255.2
		L392.6,255.0 L392.6,254.8 L392.6,254.6 L392.7,254.3 L392.7,254.1 L392.7,253.9 L392.7,253.7 L392.7,253.4
		L392.7,253.2 L392.7,252.9 L392.8,252.7 L392.8,252.5 L392.8,252.2 L392.8,252.0 L392.8,251.7 L392.9,251.4
		L392.9,251.2 L392.9,250.9 L392.9,250.6 L392.9,250.4 L393.0,250.1 L393.0,249.8 L393.0,249.5 L393.0,249.2
		L393.1,248.9 L393.1,248.6 L393.1,248.3 L393.2,248.0 L393.2,247.7 L393.2,247.4 L393.3,247.1 L393.3,246.7
		L393.3,246.4 L393.4,246.1 L393.4,245.7 L393.4,245.4 L393.5,245.0 L393.5,244.7 L393.6,244.3 L393.6,243.9
		L393.7,243.5 L393.7,243.2 L393.8,242.8 L393.8,242.4 L393.9,242.0 L393.9,241.5 L394.0,241.1 L394.1,240.7
		L394.1,240.3 L394.2,239.8 L394.3,239.4 L394.3,238.9 L394.4,238.4 L394.5,237.9 L394.6,237.5 L394.6,237.0
		L394.7,236.4 L394.8,235.9 L394.9,235.4 L395.0,234.9 L395.1,234.3 L395.2,233.7 L395.3,233.2 L395.5,232.6
		L395.6,232.0 L395.7,231.3 L395.8,230.7 L396.0,230.1 L396.1,229.4 L396.3,228.7 L396.4,228.0 L396.6,227.3
		L396.8,226.5 L397.0,225.8 L397.2,225.0 L397.4,224.2 L397.6,223.4 L397.8,222.5 L398.1,221.7 L398.3,220.8
		L398.6,219.8 L398.9,218.9 L399.2,217.9 L399.5,216.9 L399.9,215.8 L400.2,214.7 L400.6,213.6 L401.0,212.4
		L401.5,211.1 L402.0,209.9 L402.5,208.5 L403.1,207.1 L403.8,205.6 L404.5,204.0 L405.2,202.4 L406.1,200.6
		L407.1,198.7 L408.2,196.7 L409.5,194.5 L411.1,192.1 L413.0,189.3 L415.6,186.2 L419.6,182.2 L432.2,176.1
		L448.3,181.4 L452.8,185.6 L455.5,188.9 L457.6,191.7 L459.2,194.1 L460.5,196.4 L461.7,198.4 L462.7,200.3
		L463.6,202.1 L464.4,203.8 L465.1,205.4 L465.7,206.9 L466.3,208.3 L466.9,209.7 L467.4,211.0 L467.8,212.2
		L468.3,213.4 L468.7,214.6 L469.1,215.7 L469.4,216.8 L469.7,217.8 L470.1,218.8 L470.4,219.8 L470.6,220.7
		L470.9,221.6 L471.1,222.5 L471.4,223.4 L471.6,224.2 L471.8,225.0 L472.0,225.8 L472.2,226.6 L472.4,227.3
		L472.6,228.1 L472.7,228.8 L472.9,229.5 L473.0,230.1 L473.2,230.8 L473.3,231.4 L473.5,232.1 L473.6,232.7
		L473.7,233.3 L473.8,233.9 L473.9,234.5 L474.0,235.0 L474.1,235.6 L474.2,236.1 L474.3,236.6 L474.4,237.2
		L474.5,237.7 L474.6,238.2 L474.7,238.7 L474.8,239.1 L474.8,239.6 L474.9,240.1 L475.0,240.5 L475.0,241.0
		L475.1,241.4 L475.2,241.8 L475.2,242.3 L475.3,242.7 L475.3,243.1 L475.4,243.5 L475.4,243.9 L475.5,244.3
		L475.5,244.6 L475.6,245.0 L475.6,245.4 L475.7,245.7 L475.7,246.1 L475.7,246.4 L475.8,246.8 L475.8,247.1
		L475.9,247.5 L475.9,247.8 L475.9,248.1 L476.0,248.4 L476.0,248.7 L476.0,249.0 L476.0,249.4 L476.1,249.7
		L476.1,249.9 L476.1,250.2 L476.2,250.5 L476.2,250.8 L476.2,251.1 L476.2,251.4 L476.2,251.6 L476.3,251.9
		L476.3,252.2 L476.3,252.4 L476.3,252.7 L476.3,252.9 L476.4,253.2 L476.4,253.4 L476.4,253.7 L476.4,253.9
		L476.4,254.2 L476.4,254.4 L476.5,254.6 L476.5,254.9 L476.5,255.1 L476.5,255.3 L476.5,255.5 L476.5,255.7
		L476.5,256.0 L476.5,256.2 L476.6,256.4 L476.6,256.6 L476.6,256.8 L476.6,257.0 L476.6,257.2 L476.6,257.4
		L476.6,257.6 L476.6,257.8 L476.6,258.0 L476.6,258.2 L476.6,258.3 L476.7,258.5 L476.7,258.7 L476.7,258.9
		L476.7,259.1 L476.7,259.2 L476.7,259.4 L476.7,259.6 L476.7,259.8 L476.7,259.9 L476.7,260.1 L476.7,260.3
		L476.7,260.4 L476.7,260.6 L476.7,260.7 L476.7,260.9 L476.7,261.1 L476.7,261.2 L476.7,261.4 L476.7,261.5
		L476.7,261.7 L476.7,261.8 L476.7,262.0 L476.7,262.1 L476.7,262.3 L476.8,262.4 L476.8,262.5 L476.8,262.7
		L476.8,262.8 L476.8,263.0 L476.8,263.1 L476.8,263.2 L476.8,263.4 L476.8,263.5 L476.8,263.6 L476.8,263.8
		L476.8,263.9 L476.8,264.0 L476.8,264.1 L476.8,264.3 L476.8,264.4 L476.8,264.5 L476.8,264.6 L476.8,264.8
		L476.8,264.9 L476.8,265.0 L476.8,265.1 L476.8,265.3 L476.8,265.4 L476.8,265.5 L476.8,265.6 L476.8,265.8
		L476.8,265.9 L476.8,266.0 L476.8,266.2 L476.8,266.3 L476.8,266.5 L476.8,266.6 L476.8,266.7 L476.7,266.9
		L476.7,267.0 L476.7,267.2 L476.7,267.3 L476.7,267.5 L476.7,267.6 L476.7,267.8 L476.7,267.9 L476.7,268.1
		L476.7,268.3 L476.7,268.4 L476.7,268.6 L476.7,268.7 L476.7,268.9 L476.7,269.1 L476.7,269.2 L476.7,269.4
		L476.7,269.6 L476.7,269.8 L476.7,269.9 L476.7,270.1 L476.7,270.3 L476.7,270.5 L476.6,270.7 L476.6,270.8
		L476.6,271.0 L476.6,271.2 L476.6,271.4 L476.6,271.6 L476.6,271.8 L476.6,272.0 L476.6,272.2 L476.6,272.4
		L476.6,272.6 L476.5,272.8 L476.5,273.1 L476.5,273.3 L476.5,273.5 L476.5,273.7 L476.5,273.9 L476.5,274.2
		L476.5,274.4 L476.4,274.6 L476.4,274.9 L476.4,275.1 L476.4,275.4 L476.4,275.6 L476.4,275.9 L476.3,276.1
		L476.3,276.4 L476.3,276.6 L476.3,276.9 L476.3,277.2 L476.2,277.4 L476.2,277.7 L476.2,278.0 L476.2,278.3
		L476.1,278.6 L476.1,278.9 L476.1,279.2 L476.1,279.5 L476.0,279.8 L476.0,280.1 L476.0,280.4 L475.9,280.7
		L475.9,281.1 L475.9,281.4 L475.8,281.7 L475.8,282.1 L475.8,282.4 L475.7,282.8 L475.7,283.2 L475.6,283.5
		L475.6,283.9 L475.5,284.3 L475.5,284.7 L475.4,285.1 L475.4,285.5 L475.3,285.9 L475.3,286.3 L475.2,286.7
		L475.1,287.2 L475.1,287.6 L475.0,288.1 L474.9,288.5 L474.8,289.0 L474.8,289.5 L474.7,290.0 L474.6,290.5
		L474.5,291.0 L474.4,291.5 L474.3,292.1 L474.2,292.6 L474.1,293.2 L474.0,293.8 L473.9,294.3 L473.8,295.0
		L473.6,295.6 L473.5,296.2 L473.4,296.9 L473.2,297.5 L473.1,298.2 L472.9,298.9 L472.7,299.6 L472.5,300.4
		L472.3,301.1 L472.1,301.9 L471.9,302.7 L471.7,303.6 L471.5,304.4 L471.2,305.3 L470.9,306.3 L470.6,307.2
		L470.3,308.2 L470.0,309.2 L469.6,310.3 L469.2,311.4 L468.8,312.6 L468.4,313.8 L467.9,315.1 L467.3,316.4
		L466.8,317.8 L466.1,319.3 L465.4,320.9 L464.6,322.5 L463.6,324.3 L462.5,326.3 L461.3,328.4 L459.7,330.8
		L457.7,333.5 L454.8,336.8 L449.2,341.4 L429.0,341.1 L423.6,336.6 L420.8,333.3 L418.8,330.6 L417.2,328.3
		L416.0,326.1 L414.9,324.2 L413.9,322.4 L413.1,320.7 L412.4,319.1 L411.7,317.6 L411.1,316.2 L410.6,314.9
		L410.1,313.6 L409.6,312.4 L409.2,311.2 L408.8,310.1 L408.4,309.0 L408.1,308.0 L407.8,307.0 L407.5,306.0
		L407.2,305.1 L407.0,304.2 L406.7,303.3 L406.5,302.4 L406.3,301.6 L406.0,300.8 L405.8,300.0 L405.7,299.3
		L405.5,298.6 L405.3,297.8 L405.2,297.1 L405.0,296.5 L404.9,295.8 L404.7,295.2 L404.6,294.5 L404.5,293.9
		L404.3,293.3 L404.2,292.8 L404.1,292.2 L404.0,291.6 L403.9,291.1 L403.8,290.5 L403.7,290.0 L403.6,289.5
		L403.6,289.0 L403.5,288.5 L403.4,288.0 L403.3,287.6 L403.3,287.1 L403.2,286.7 L403.1,286.2 L403.1,285.8
		L403.0,285.4 L402.9,284.9 L402.9,284.5 L402.8,284.1 L402.8,283.7 L402.7,283.3 L402.7,283.0 L402.6,282.6
		L402.6,282.2 L402.5,281.8 L402.5,281.5 L402.5,281.1 L402.4,280.8 L402.4,280.5 L402.4,280.1 L402.3,279.8
		L402.3,279.5 L402.3,279.1 L402.2,278.8 L402.2,278.5 L402.2,278.2 L402.1,277.9 L402.1,277.6 L402.1,277.3
		L402.1,277.1 L402.0,276.8 L402.0,276.5 L402.0,276.2 L402.0,275.9 L402.0,275.7 L401.9,275.4 L401.9,275.2
		L401.9,274.9 L401.9,274.7 L401.9,274.4 L401.9,274.2 L401.8,273.9 L401.8,273.7 L401.8,273.4 L401.8,273.2
		L401.8,273.0 L401.8,272.8 L401.8,272.5 L401.7,272.3 L401.7,272.1 L401.7,271.9 L401.7,271.7 L401.7,271.5
		L401.7,271.3 L401.7,271.1 L401.7,270.9 L401.7,270.7 L401.7,270.5 L401.7,270.3 L401.6,270.1 L401.6,269.9
		L401.6,269.7 L401.6,269.5 L401.6,269.3 L401.6,269.1 L401.6,269.0 L401.6,268.8 L401.6,268.6 L401.6,268.4
		L401.6,268.3 L401.6,268.1 L401.6,267.9 L401.6,267.8 L401.6,267.6 L401.6,267.4 L401.6,267.3 L401.6,267.1
		L401.6,267.0 L401.6,266.8 L401.6,266.7 L401.6,266.5 L401.6,266.4 L401.6,266.2 L401.6,266.1 L401.5,265.9
		L401.5,265.8 L401.5,265.6 L401.5,265.5 L401.5,265.4 L401.5,265.2 L401.5,265.1 L401.5,264.9 L401.5,264.8
		L401.5,264.7 L401.5,264.6 L401.5,264.4 L401.5,264.3 L401.5,264.2 L401.5,264.0 L401.5,263.9 L401.5,263.7
		L401.5,263.6 L401.5,263.5 L401.5,263.3 L401.5,263.2 L401.6,263.0 L401.6,262.9 L401.6,262.7 L401.6,262.6
		L401.6,262.4 L401.6,262.3 L401.6,262.1 L401.6,262.0 L401.6,261.8 L401.6,261.6 L401.6,261.5 L401.6,261.3
		L401.6,261.1 L401.6,261.0 L401.6,260.8 L401.6,260.6 L401.6,260.5 L401.6,260.3 L401.6,260.1 L401.6,259.9
		L401.6,259.7 L401.6,259.6 L401.6,259.4 L401.6,259.2 L401.6,259.0 L401.7,258.8 L401.7,258.6 L401.7,258.4
		L401.7,258.2 L401.7,258.0 L401.7,257.8 L401.7,257.6 L401.7,257.4 L401.7,257.1 L401.7,256.9 L401.8,256.7
		L401.8,256.5 L401.8,256.3 L401.8,256.0 L401.8,255.8 L401.8,255.6 L401.8,255.3 L401.8,255.1 L401.9,254.8
		L401.9,254.6 L401.9,254.3 L401.9,254.1 L401.9,253.8 L402.0,253.5 L402.0,253.3 L402.0,253.0 L402.0,252.7
		L402.0,252.4 L402.1,252.1 L402.1,251.8 L402.1,251.5 L402.1,251.2 L402.2,250.9 L402.2,250.6 L402.2,250.3
		L402.3,250.0 L402.3,249.7 L402.3,249.3 L402.4,249.0 L402.4,248.6 L402.4,248.3 L402.5,247.9 L402.5,247.6
		L402.6,247.2 L402.6,246.8 L402.7,246.4 L402.7,246.1 L402.8,245.7 L402.8,245.2 L402.9,244.8 L402.9,244.4
		L403.0,244.0 L403.1,243.5 L403.1,243.1 L403.2,242.6 L403.3,242.2 L403.4,241.7 L403.4,241.2 L403.5,240.7
		L403.6,240.2 L403.7,239.6 L403.8,239.1 L403.9,238.6 L404.0,238.0 L404.1,237.4 L404.2,236.8 L404.4,236.2
		L404.5,235.6 L404.6,235.0 L404.8,234.3 L404.9,233.6 L405.1,232.9 L405.3,232.2 L405.4,231.5 L405.6,230.7
		L405.8,229.9 L406.1,229.1 L406.3,228.3 L406.5,227.4 L406.8,226.5 L407.1,225.6 L407.4,224.6 L407.7,223.6
		L408.1,222.6 L408.4,221.5 L408.9,220.3 L409.3,219.1 L409.8,217.8 L410.4,216.5 L411.0,215.1 L411.7,213.6
		L412.5,212.0 L413.4,210.2 L414.4,208.3 L415.7,206.2 L417.3,203.9 L419.5,201.1 L422.9,197.6 L437.2,192.7
		L447.9,198.4 L451.0,201.7 L453.1,204.4 L454.6,206.7 L455.9,208.8 L456.9,210.7 L457.8,212.4 L458.6,214.0
		L459.3,215.5 L459.9,216.9 L460.4,218.3 L460.9,219.5 L461.4,220.8 L461.8,221.9 L462.2,223.0 L462.6,224.1
		L462.9,225.1 L463.2,226.0 L463.5,227.0 L463.7,227.9 L464.0,228.8 L464.2,229.6 L464.5,230.4 L464.7,231.2
		L464.9,232.0 L465.0,232.7 L465.2,233.5 L465.4,234.2 L465.5,234.9 L465.7,235.5 L465.8,236.2 L466.0,236.8
		L466.1,237.4 L466.2,238.0 L466.3,238.6 L466.4,239.2 L466.5,239.7 L466.6,240.3 L466.7,240.8 L466.8,241.3
		L466.9,241.8 L467.0,242.3 L467.1,242.8 L467.2,243.3 L467.2,243.7 L467.3,244.2 L467.4,244.7 L467.4,245.1
		L467.5,245.5 L467.5,245.9 L467.6,246.4 L467.7,246.8 L467.7,247.2 L467.8,247.5 L467.8,247.9 L467.8,248.3
		L467.9,248.7 L467.9,249.0 L468.0,249.4 L468.0,249.7 L468.0,250.1 L468.1,250.4 L468.1,250.8 L468.1,251.1
		L468.2,251.4 L468.2,251.7 L468.2,252.0 L468.3,252.3 L468.3,252.6 L468.3,252.9 L468.3,253.2 L468.4,253.5
		L468.4,253.8 L468.4,254.1 L468.4,254.3 L468.4,254.6 L468.5,254.9 L468.5,255.1 L468.5,255.4 L468.5,255.7
		L468.5,255.9 L468.5,256.2 L468.6,256.4 L468.6,256.6 L468.6,256.9 L468.6,257.1 L468.6,257.3 L468.6,257.6
		L468.6,257.8 L468.6,258.0 L468.7,258.2 L468.7,258.4 L468.7,258.7 L468.7,258.9 L468.7,259.1 L468.7,259.3
		L468.7,259.5 L468.7,259.7 L468.7,259.9 L468.7,260.1 L468.7,260.3 L468.7,260.5 L468.7,260.6 L468.8,260.8
		L468.8,261.0 L468.8,261.2 L468.8,261.4 L468.8,261.5 L468.8,261.7 L468.8,261.9 L468.8,262.1 L468.8,262.2
		L468.8,262.4 L468.8,262.6 L468.8,262.7 L468.8,262.9 L468.8,263.0 L468.8,263.2 L468.8,263.4 L468.8,263.5
		L468.8,263.7 L468.8,263.8 L468.8,264.0 L468.8,264.1 L468.8,264.3 L468.8,264.4 L468.8,264.5 L468.8,264.7
		L468.8,264.8 L468.8,265.0 L468.8,265.1 L468.8,265.3 L468.8,265.4 L468.8,265.6 L468.8,265.7 L468.8,265.9
		L468.8,266.0 L468.8,266.2 L468.8,266.4 L468.8,266.5 L468.8,266.7 L468.8,266.8 L468.8,267.0 L468.8,267.2
		L468.8,267.4 L468.8,267.5 L468.8,267.7 L468.8,267.9 L468.8,268.1 L468.8,268.3 L468.7,268.4 L468.7,268.6
		L468.7,268.8 L468.7,269.0 L468.7,269.2 L468.7,269.4 L468.7,269.6 L468.7,269.8 L468.7,270.0 L468.7,270.2
		L468.7,270.4 L468.7,270.7 L468.7,270.9 L468.6,271.1 L468.6,271.3 L468.6,271.5 L468.6,271.8 L468.6,272.0
		L468.6,272.2 L468.6,272.5 L468.6,272.7 L468.5,273.0 L468.5,273.2 L468.5,273.5 L468.5,273.7 L468.5,274.0
		L468.5,274.3 L468.4,274.5 L468.4,274.8 L468.4,275.1 L468.4,275.4 L468.3,275.7 L468.3,276.0 L468.3,276.3
		L468.3,276.6 L468.2,276.9 L468.2,277.2 L468.2,277.5 L468.2,277.9 L468.1,278.2 L468.1,278.5 L468.0,278.9
		L468.0,279.2 L468.0,279.6 L467.9,280.0 L467.9,280.3 L467.8,280.7 L467.8,281.1 L467.7,281.5 L467.7,281.9
		L467.6,282.3 L467.6,282.7 L467.5,283.1 L467.5,283.6 L467.4,284.0 L467.3,284.5 L467.2,285.0 L467.2,285.4
		L467.1,285.9 L467.0,286.4 L466.9,286.9 L466.8,287.5 L466.7,288.0 L466.6,288.6 L466.5,289.1 L466.4,289.7
		L466.3,290.3 L466.2,290.9 L466.0,291.6 L465.9,292.2 L465.7,292.9 L465.6,293.6 L465.4,294.3 L465.2,295.0
		L465.0,295.8 L464.8,296.6 L464.6,297.4 L464.4,298.2 L464.1,299.1 L463.8,300.0 L463.5,301.0 L463.2,301.9
		L462.9,303.0 L462.5,304.1 L462.1,305.2 L461.6,306.4 L461.1,307.7 L460.5,309.0 L459.9,310.4 L459.1,312.0
		L458.3,313.6 L457.3,315.5 L456.0,317.5 L454.4,319.8 L452.2,322.6 L448.1,326.3 L430.1,326.6 L425.6,322.7
		L423.3,319.9 L421.7,317.5 L420.4,315.4 L419.3,313.6 L418.5,311.9 L417.7,310.3 L417.0,308.9 L416.4,307.5
		L415.9,306.2 L415.4,305.0 L415.0,303.9 L414.6,302.8 L414.3,301.7 L413.9,300.7 L413.6,299.7 L413.3,298.8
		L413.1,297.9 L412.8,297.1 L412.6,296.2 L412.4,295.4 L412.2,294.6 L412.0,293.9 L411.8,293.2 L411.6,292.5
		L411.5,291.8 L411.3,291.1 L411.2,290.5 L411.1,289.8 L410.9,289.2 L410.8,288.6 L410.7,288.1 L410.6,287.5
		L410.5,286.9 L410.4,286.4 L410.3,285.9 L410.2,285.4 L410.1,284.9 L410.1,284.4 L410.0,283.9 L409.9,283.4
		L409.9,283.0 L409.8,282.5 L409.7,282.1 L409.7,281.7 L409.6,281.2 L409.6,280.8 L409.5,280.4 L409.5,280.0
		L409.4,279.6 L409.4,279.3 L409.3,278.9 L409.3,278.5 L409.2,278.2 L409.2,277.8 L409.2,277.5 L409.1,277.1
		L409.1,276.8 L409.1,276.5 L409.0,276.1 L409.0,275.8 L409.0,275.5 L409.0,275.2 L408.9,274.9 L408.9,274.6
		L408.9,274.3 L408.9,274.0 L408.8,273.8 L408.8,273.5 L408.8,273.2 L408.8,272.9 L408.8,272.7 L408.8,272.4
		L408.7,272.2 L408.7,271.9 L408.7,271.6 L408.7,271.4 L408.7,271.2 L408.7,270.9 L408.7,270.7 L408.6,270.5
		L408.6,270.2 L408.6,270.0 L408.6,269.8 L408.6,269.6 L408.6,269.3 L408.6,269.1 L408.6,268.9 L408.6,268.7
		L408.6,268.5 L408.6,268.3 L408.6,268.1 L408.6,267.9 L408.5,267.7 L408.5,267.5 L408.5,267.3 L408.5,267.2
		L408.5,267.0 L408.5,266.8 L408.5,266.6 L408.5,266.4 L408.5,266.3 L408.5,266.1 L408.5,265.9 L408.5,265.7
		L408.5,265.6 L408.5,265.4 L408.5,265.3 L408.5,265.1 L408.5,264.9 L408.5,264.8 L408.5,264.6 L408.5,264.5
		L408.5,264.3 L408.5,264.2 L408.5,264.0 L408.5,263.8 L408.5,263.7 L408.5,263.5 L408.5,263.3 L408.5,263.2
		L408.5,263.0 L408.5,262.8 L408.5,262.6 L408.5,262.5 L408.5,262.3 L408.5,262.1 L408.5,261.9 L408.5,261.7
		L408.5,261.5 L408.5,261.3 L408.6,261.2 L408.6,261.0 L408.6,260.8 L408.6,260.5 L408.6,260.3 L408.6,260.1
		L408.6,259.9 L408.6,259.7 L408.6,259.5 L408.6,259.3 L408.6,259.0 L408.6,258.8 L408.7,258.6 L408.7,258.3
		L408.7,258.1 L408.7,257.9 L408.7,257.6 L408.7,257.4 L408.7,257.1 L408.7,256.8 L408.8,256.6 L408.8,256.3
		L408.8,256.0 L408.8,255.8 L408.8,255.5 L408.9,255.2 L408.9,254.9 L408.9,254.6 L408.9,254.3 L409.0,254.0
		L409.0,253.7 L409.0,253.4 L409.0,253.1 L409.1,252.7 L409.1,252.4 L409.1,252.0 L409.2,251.7 L409.2,251.3
		L409.2,251.0 L409.3,250.6 L409.3,250.2 L409.4,249.8 L409.4,249.5 L409.5,249.1 L409.5,248.6 L409.6,248.2
		L409.6,247.8 L409.7,247.4 L409.8,246.9 L409.8,246.4 L409.9,246.0 L410.0,245.5 L410.1,245.0 L410.2,244.5
		L410.2,244.0 L410.3,243.4 L410.4,242.9 L410.5,242.3 L410.7,241.8 L410.8,241.2 L410.9,240.5 L411.0,239.9
		L411.2,239.3 L411.3,238.6 L411.5,237.9 L411.7,237.2 L411.8,236.4 L412.0,235.7 L412.3,234.9 L412.5,234.1
		L412.7,233.2 L413.0,232.3 L413.3,231.4 L413.6,230.4 L414.0,229.4 L414.3,228.3 L414.8,227.1 L415.2,225.9
		L415.8,224.7 L416.4,223.3 L417.1,221.8 L417.9,220.2 L418.9,218.4 L420.1,216.5 L421.7,214.2 L424.1,211.3
		L430.2,207.0 L445.5,210.3 L448.5,213.4 L450.3,215.9 L451.6,218.0 L452.7,219.8 L453.6,221.5 L454.3,223.0
		L455.0,224.4 L455.6,225.8 L456.1,227.0 L456.5,228.2 L456.9,229.3 L457.3,230.4 L457.6,231.4 L458.0,232.3
		L458.2,233.3 L458.5,234.1 L458.8,235.0 L459.0,235.8 L459.2,236.6 L459.4,237.4 L459.6,238.1 L459.7,238.8
		L459.9,239.5 L460.1,240.2 L460.2,240.8 L460.3,241.5 L460.5,242.1 L460.6,242.7 L460.7,243.3 L460.8,243.8
		L460.9,244.4 L461.0,244.9 L461.1,245.4 L461.2,245.9 L461.2,246.4 L461.3,246.9 L461.4,247.4 L461.5,247.9
		L461.5,248.3 L461.6,248.8 L461.6,249.2 L461.7,249.6 L461.8,250.0 L461.8,250.4 L461.9,250.8 L461.9,251.2
		L461.9,251.6 L462.0,252.0 L462.0,252.3 L462.1,252.7 L462.1,253.0 L462.1,253.4 L462.2,253.7 L462.2,254.1
		L462.2,254.4 L462.2,254.7 L462.3,255.0 L462.3,255.3 L462.3,255.6 L462.3,255.9 L462.4,256.2 L462.4,256.5
		L462.4,256.8 L462.4,257.1 L462.4,257.3 L462.5,257.6 L462.5,257.9 L462.5,258.1 L462.5,258.4 L462.5,258.6
		L462.5,258.9 L462.5,259.1 L462.5,259.4 L462.6,259.6 L462.6,259.9 L462.6,260.1 L462.6,260.3 L462.6,260.5
		L462.6,260.8 L462.6,261.0 L462.6,261.2 L462.6,261.4 L462.6,261.6 L462.6,261.8 L462.6,262.0 L462.6,262.2
		L462.6,262.4 L462.6,262.6 L462.7,262.8 L462.7,263.0 L462.7,263.2 L462.7,263.4 L462.7,263.5 L462.7,263.7
		L462.7,263.9 L462.7,264.1 L462.7,264.2 L462.7,264.4 L462.7,264.6 L462.7,264.8 L462.7,264.9 L462.7,265.1
		L462.7,265.3 L462.7,265.5 L462.7,265.6 L462.7,265.8 L462.7,266.0 L462.7,266.2 L462.6,266.4 L462.6,266.6
		L462.6,266.8 L462.6,267.0 L462.6,267.2 L462.6,267.4 L462.6,267.6 L462.6,267.8 L462.6,268.0 L462.6,268.2
		L462.6,268.4 L462.6,268.7 L462.6,268.9 L462.6,269.1 L462.6,269.4 L462.6,269.6 L462.5,269.8 L462.5,270.1
		L462.5,270.3 L462.5,270.6 L462.5,270.9 L462.5,271.1 L462.5,271.4 L462.4,271.7 L462.4,271.9 L462.4,272.2
		L462.4,272.5 L462.4,272.8 L462.3,273.1 L462.3,273.4 L462.3,273.7 L462.3,274.0 L462.2,274.3 L462.2,274.7
		L462.2,275.0 L462.2,275.3 L462.1,275.7 L462.1,276.0 L462.0,276.4 L462.0,276.8 L462.0,277.2 L461.9,277.5
		L461.9,277.9 L461.8,278.3 L461.8,278.7 L461.7,279.2 L461.7,279.6 L461.6,280.0 L461.5,280.5 L461.5,281.0
		L461.4,281.4 L461.3,281.9 L461.2,282.4 L461.2,282.9 L461.1,283.5 L461.0,284.0 L460.9,284.6 L460.8,285.1
		L460.6,285.7 L460.5,286.3 L460.4,287.0 L460.2,287.6 L460.1,288.3 L459.9,289.0 L459.7,289.7 L459.6,290.5
		L459.3,291.2 L459.1,292.1 L458.9,292.9 L458.6,293.8 L458.3,294.7 L458.0,295.7 L457.7,296.7 L457.3,297.8
		L456.9,298.9 L456.4,300.1 L455.8,301.4 L455.2,302.8 L454.4,304.4 L453.5,306.1 L452.3,308.0 L450.8,310.2
		L448.3,313.0  '/></g>
	</g>
<g fill="none" color="white" stroke="rgb(148,   0, 211)" stroke-width="2.00" stroke-linecap="butt" stroke-linejoin="miter">
</g>
<g fill="none" color="black" stroke="currentColor" stroke-width="2.00" stroke-linecap="butt" stroke-linejoin="miter">
</g>
<g fill="none" color="black" stroke="black" stroke-width="1.00" stroke-linecap="butt" stroke-linejoin="miter">
</g>
<g fill="none" color="black" stroke="currentColor" stroke-width="1.00" stroke-linecap="butt" stroke-linejoin="miter">
	<path stroke='black'  d='M55.3,54.1 L55.3,422.4 L575.0,422.4 L575.0,54.1 L55.3,54.1 Z  '/></g>
<g fill="none" color="black" stroke="currentColor" stroke-width="1.00" stroke-linecap="butt" stroke-linejoin="miter">
</g>
</g>
</svg>

