\relax 
\@writefile{lof}{\contentsline {figure}{\numberline {1}{\ignorespaces Scaling of my inverse iteration algorithm compared with the scaling of my jacobi diagonalization of an hermitian matrix from the exercises. My implementation of the inverse iteration algorithm seems to scale correctly as $O(n^3)$}}{2}}
\newlabel{fig:scaling}{{1}{2}}
