\relax 
\@writefile{lof}{\contentsline {figure}{\numberline {1}{\ignorespaces This is my plot of the error function.}}{1}}
\@writefile{toc}{\contentsline {section}{\numberline {1}Name}{1}}
\@writefile{toc}{\contentsline {section}{\numberline {2}Application}{1}}
